Id,Prediction
1,7
2,2
3,1
4,0
5,4
6,1
7,4
8,4
9,6
10,9
11,0
12,6
13,9
14,0
15,1
16,5
17,9
18,7
19,3
20,4
21,9
22,6
23,6
24,5
25,4
26,0
27,7
28,4
29,0
30,1
31,3
32,1
33,3
34,4
35,7
36,2
37,7
38,1
39,2
40,1
41,1
42,7
43,4
44,2
45,3
46,5
47,1
48,2
49,4
50,4
51,6
52,3
53,5
54,5
55,6
56,0
57,4
58,1
59,9
60,5
61,7
62,8
63,9
64,3
65,7
66,4
67,6
68,4
69,3
70,0
71,7
72,0
73,2
74,7
75,1
76,7
77,3
78,2
79,9
80,7
81,7
82,6
83,2
84,7
85,8
86,4
87,7
88,3
89,6
90,1
91,3
92,6
93,9
94,3
95,1
96,4
97,1
98,7
99,6
100,9
101,6
102,0
103,5
104,4
105,9
106,9
107,2
108,1
109,9
110,4
111,8
112,7
113,3
114,9
115,7
116,9
117,4
118,4
119,9
120,2
121,5
122,4
123,7
124,6
125,7
126,9
127,0
128,5
129,8
130,5
131,6
132,6
133,5
134,7
135,8
136,1
137,0
138,1
139,6
140,4
141,6
142,7
143,3
144,1
145,9
146,1
147,8
148,2
149,0
150,2
151,9
152,9
153,5
154,5
155,1
156,5
157,6
158,0
159,3
160,4
161,4
162,6
163,5
164,4
165,6
166,5
167,4
168,5
169,1
170,4
171,4
172,7
173,2
174,3
175,2
176,1
177,1
178,8
179,1
180,8
181,1
182,8
183,5
184,0
185,8
186,9
187,2
188,5
189,0
190,1
191,1
192,1
193,0
194,9
195,0
196,3
197,1
198,6
199,4
200,2
201,3
202,6
203,1
204,1
205,1
206,3
207,9
208,5
209,2
210,9
211,4
212,5
213,9
214,3
215,9
216,0
217,3
218,5
219,5
220,5
221,7
222,2
223,2
224,7
225,1
226,2
227,8
228,4
229,1
230,7
231,3
232,3
233,8
234,8
235,7
236,9
237,2
238,2
239,4
240,1
241,5
242,8
243,8
244,2
245,2
246,3
247,0
248,4
249,4
250,2
251,4
252,1
253,9
254,5
255,7
256,7
257,2
258,8
259,2
260,0
261,8
262,5
263,7
264,7
265,1
266,1
267,8
268,1
269,8
270,0
271,3
272,0
273,1
274,9
275,9
276,4
277,1
278,8
279,2
280,1
281,2
282,9
283,7
284,5
285,9
286,2
287,6
288,7
289,1
290,5
291,8
292,2
293,9
294,2
295,0
296,4
297,0
298,0
299,2
300,8
301,4
302,7
303,1
304,2
305,4
306,0
307,2
308,7
309,4
310,3
311,3
312,0
313,0
314,3
315,1
316,9
317,6
318,5
319,2
320,5
321,1
322,7
323,9
324,3
325,0
326,4
327,2
328,0
329,7
330,1
331,1
332,2
333,1
334,5
335,3
336,3
337,9
338,7
339,8
340,6
341,3
342,6
343,1
344,3
345,8
346,1
347,0
348,5
349,1
350,3
351,1
352,5
353,5
354,6
355,1
356,8
357,5
358,1
359,4
360,9
361,4
362,6
363,2
364,2
365,5
366,0
367,9
368,5
369,6
370,3
371,7
372,2
373,0
374,8
375,8
376,5
377,4
378,1
379,1
380,4
381,0
382,7
383,3
384,7
385,6
386,1
387,6
388,2
389,1
390,9
391,2
392,8
393,6
394,1
395,9
396,5
397,2
398,5
399,4
400,4
401,2
402,8
403,3
404,4
405,2
406,4
407,5
408,0
409,3
410,1
411,7
412,7
413,5
414,7
415,9
416,7
417,1
418,9
419,2
420,1
421,4
422,5
423,9
424,2
425,0
426,4
427,9
428,1
429,4
430,8
431,1
432,8
433,4
434,5
435,9
436,7
437,8
438,3
439,7
440,6
441,0
442,0
443,3
444,0
445,7
446,0
447,6
448,9
449,8
450,5
451,3
452,3
453,2
454,3
455,9
456,1
457,7
458,6
459,8
460,0
461,5
462,6
463,6
464,6
465,7
466,8
467,8
468,2
469,9
470,5
471,8
472,9
473,6
474,1
475,8
476,4
477,1
478,2
479,5
480,3
481,1
482,9
483,7
484,5
485,4
486,0
487,8
488,9
489,9
490,1
491,0
492,5
493,2
494,3
495,7
496,8
497,9
498,4
499,0
500,6
501,3
502,9
503,5
504,2
505,1
506,3
507,1
508,3
509,6
510,5
511,7
512,8
513,2
514,2
515,6
516,3
517,2
518,6
519,5
520,4
521,8
522,9
523,9
524,1
525,3
526,0
527,3
528,8
529,3
530,1
531,9
532,3
533,4
534,4
535,6
536,4
537,2
538,1
539,8
540,2
541,5
542,4
543,4
544,3
545,4
546,0
547,0
548,2
549,3
550,2
551,7
552,1
553,0
554,8
555,7
556,4
557,4
558,7
559,9
560,4
561,9
562,0
563,4
564,8
565,0
566,4
567,6
568,0
569,6
570,3
571,5
572,9
573,8
574,3
575,3
576,9
577,3
578,3
579,7
580,7
581,8
582,0
583,2
584,2
585,1
586,7
587,0
588,6
589,5
590,4
591,3
592,3
593,0
594,9
595,6
596,3
597,8
598,0
599,9
600,9
601,6
602,8
603,6
604,8
605,5
606,7
607,8
608,6
609,0
610,2
611,4
612,0
613,2
614,8
615,3
616,1
617,9
618,2
619,5
620,1
621,0
622,8
623,4
624,6
625,2
626,6
627,7
628,9
629,9
630,2
631,9
632,8
633,2
634,2
635,9
636,2
637,7
638,3
639,7
640,9
641,1
642,8
643,0
644,2
645,0
646,5
647,2
648,1
649,3
650,7
651,6
652,7
653,1
654,2
655,0
656,8
657,0
658,3
659,7
660,9
661,4
662,0
663,9
664,1
665,8
666,6
667,7
668,1
669,4
670,3
671,4
672,9
673,1
674,9
675,5
676,1
677,7
678,3
679,9
680,7
681,6
682,9
683,1
684,3
685,2
686,8
687,3
688,3
689,6
690,9
691,2
692,4
693,5
694,8
695,5
696,1
697,1
698,4
699,4
700,3
701,1
702,0
703,7
704,7
705,0
706,7
707,9
708,9
709,4
710,8
711,5
712,5
713,4
714,0
715,8
716,2
717,1
718,0
719,8
720,4
721,8
722,0
723,4
724,0
725,6
726,1
727,5
728,3
729,2
730,6
731,7
732,2
733,6
734,9
735,3
736,1
737,4
738,6
739,2
740,5
741,9
742,2
743,0
744,6
745,2
746,1
747,7
748,3
749,4
750,1
751,0
752,5
753,4
754,3
755,1
756,1
757,7
758,4
759,9
760,9
761,4
762,8
763,4
764,0
765,2
766,4
767,5
768,1
769,1
770,6
771,4
772,7
773,1
774,9
775,4
776,2
777,4
778,1
779,5
780,5
781,3
782,8
783,3
784,1
785,4
786,5
787,6
788,8
789,9
790,4
791,1
792,9
793,3
794,8
795,0
796,3
797,2
798,5
799,1
800,2
801,8
802,3
803,4
804,4
805,0
806,8
807,8
808,3
809,3
810,1
811,2
812,3
813,5
814,9
815,6
816,3
817,2
818,6
819,1
820,3
821,6
822,0
823,7
824,2
825,1
826,7
827,1
828,4
829,2
830,4
831,2
832,1
833,9
834,7
835,6
836,1
837,1
838,2
839,4
840,3
841,1
842,7
843,7
844,4
845,8
846,0
847,9
848,3
849,1
850,3
851,1
852,0
853,7
854,7
855,0
856,3
857,5
858,5
859,2
860,7
861,6
862,6
863,9
864,2
865,8
866,3
867,6
868,2
869,2
870,5
871,6
872,0
873,8
874,2
875,9
876,2
877,8
878,6
879,8
880,8
881,7
882,9
883,4
884,3
885,0
886,6
887,6
888,3
889,2
890,1
891,5
892,2
893,2
894,9
895,3
896,0
897,0
898,5
899,7
900,8
901,1
902,4
903,4
904,6
905,0
906,2
907,4
908,1
909,4
910,7
911,4
912,7
913,3
914,9
915,8
916,8
917,4
918,7
919,1
920,2
921,1
922,2
923,2
924,3
925,2
926,3
927,8
928,3
929,9
930,1
931,7
932,4
933,0
934,3
935,5
936,5
937,8
938,6
939,5
940,0
941,6
942,7
943,6
944,6
945,3
946,2
947,7
948,8
949,1
950,1
951,7
952,4
953,6
954,4
955,9
956,5
957,6
958,3
959,3
960,9
961,9
962,8
963,9
964,1
965,1
966,0
967,9
968,1
969,4
970,4
971,5
972,4
973,0
974,6
975,2
976,3
977,3
978,1
979,5
980,1
981,2
982,0
983,3
984,8
985,1
986,2
987,6
988,7
989,1
990,6
991,2
992,3
993,9
994,0
995,1
996,2
997,2
998,0
999,9
1000,9
1001,9
1002,0
1003,2
1004,5
1005,1
1006,9
1007,7
1008,8
1009,1
1010,0
1011,4
1012,1
1013,9
1014,9
1015,5
1016,4
1017,2
1018,6
1019,8
1020,1
1021,3
1022,7
1023,5
1024,4
1025,4
1026,1
1027,8
1028,1
1029,3
1030,8
1031,1
1032,2
1033,5
1034,8
1035,0
1036,6
1037,2
1038,1
1039,1
1040,7
1041,1
1042,5
1043,3
1044,4
1045,6
1046,9
1047,5
1048,0
1049,9
1050,2
1051,2
1052,4
1053,8
1054,2
1055,1
1056,7
1057,2
1058,4
1059,9
1060,4
1061,4
1062,0
1063,7
1064,9
1065,2
1066,2
1067,3
1068,3
1069,8
1070,3
1071,5
1072,7
1073,3
1074,5
1075,8
1076,1
1077,2
1078,4
1079,4
1080,6
1081,4
1082,9
1083,5
1084,1
1085,0
1086,6
1087,9
1088,5
1089,9
1090,5
1091,9
1092,7
1093,1
1094,8
1095,0
1096,3
1097,0
1098,1
1099,3
1100,6
1101,7
1102,8
1103,5
1104,9
1105,7
1106,9
1107,6
1108,8
1109,6
1110,3
1111,7
1112,4
1113,6
1114,5
1115,8
1116,5
1117,4
1118,7
1119,8
1120,7
1121,8
1122,0
1123,7
1124,6
1125,8
1126,9
1127,7
1128,3
1129,3
1130,1
1131,9
1132,5
1133,2
1134,7
1135,3
1136,5
1137,1
1138,1
1139,2
1140,1
1141,4
1142,7
1143,4
1144,7
1145,5
1146,4
1147,5
1148,4
1149,0
1150,8
1151,3
1152,6
1153,9
1154,6
1155,0
1156,2
1157,7
1158,4
1159,4
1160,6
1161,4
1162,6
1163,6
1164,4
1165,7
1166,9
1167,3
1168,4
1169,5
1170,5
1171,8
1172,7
1173,3
1174,7
1175,2
1176,7
1177,0
1178,2
1179,6
1180,1
1181,1
1182,1
1183,6
1184,9
1185,2
1186,8
1187,7
1188,2
1189,0
1190,1
1191,5
1192,9
1193,4
1194,1
1195,8
1196,0
1197,6
1198,0
1199,8
1200,6
1201,5
1202,1
1203,8
1204,0
1205,7
1206,3
1207,7
1208,2
1209,3
1210,6
1211,2
1212,1
1213,6
1214,1
1215,1
1216,3
1217,7
1218,9
1219,0
1220,8
1221,0
1222,5
1223,4
1224,0
1225,2
1226,8
1227,2
1228,2
1229,9
1230,8
1231,4
1232,0
1233,8
1234,6
1235,8
1236,5
1237,1
1238,2
1239,1
1240,3
1241,1
1242,7
1243,9
1244,5
1245,7
1246,2
1247,0
1248,0
1249,3
1250,8
1251,6
1252,2
1253,5
1254,4
1255,1
1256,9
1257,2
1258,1
1259,5
1260,8
1261,1
1262,0
1263,2
1264,4
1265,4
1266,3
1267,6
1268,8
1269,8
1270,4
1271,9
1272,0
1273,5
1274,0
1275,4
1276,4
1277,7
1278,9
1279,3
1280,4
1281,1
1282,5
1283,9
1284,2
1285,3
1286,5
1287,8
1288,8
1289,0
1290,5
1291,3
1292,3
1293,6
1294,6
1295,0
1296,1
1297,6
1298,0
1299,3
1300,7
1301,4
1302,4
1303,1
1304,2
1305,9
1306,1
1307,4
1308,6
1309,9
1310,9
1311,3
1312,9
1313,8
1314,4
1315,4
1316,3
1317,1
1318,3
1319,1
1320,3
1321,8
1322,7
1323,9
1324,4
1325,8
1326,8
1327,1
1328,9
1329,7
1330,1
1331,4
1332,5
1333,6
1334,0
1335,5
1336,2
1337,2
1338,6
1339,1
1340,5
1341,5
1342,2
1343,4
1344,9
1345,6
1346,2
1347,7
1348,7
1349,2
1350,2
1351,1
1352,1
1353,2
1354,8
1355,3
1356,7
1357,2
1358,4
1359,1
1360,7
1361,1
1362,7
1363,6
1364,7
1365,8
1366,2
1367,7
1368,3
1369,1
1370,7
1371,5
1372,8
1373,2
1374,6
1375,2
1376,2
1377,5
1378,6
1379,6
1380,0
1381,9
1382,2
1383,4
1384,3
1385,3
1386,9
1387,7
1388,6
1389,6
1390,8
1391,0
1392,4
1393,1
1394,7
1395,8
1396,2
1397,9
1398,1
1399,8
1400,0
1401,6
1402,7
1403,2
1404,1
1405,0
1406,5
1407,8
1408,2
1409,0
1410,2
1411,2
1412,0
1413,2
1414,4
1415,9
1416,8
1417,0
1418,9
1419,9
1420,4
1421,6
1422,5
1423,4
1424,9
1425,1
1426,8
1427,3
1428,4
1429,9
1430,4
1431,1
1432,2
1433,2
1434,3
1435,1
1436,9
1437,6
1438,4
1439,0
1440,9
1441,9
1442,8
1443,3
1444,8
1445,6
1446,0
1447,2
1448,5
1449,1
1450,9
1451,6
1452,2
1453,9
1454,4
1455,0
1456,9
1457,6
1458,0
1459,6
1460,2
1461,5
1462,4
1463,2
1464,3
1465,9
1466,4
1467,0
1468,5
1469,2
1470,3
1471,8
1472,5
1473,3
1474,5
1475,8
1476,6
1477,5
1478,7
1479,6
1480,3
1481,3
1482,9
1483,6
1484,1
1485,1
1486,2
1487,9
1488,0
1489,4
1490,3
1491,3
1492,6
1493,9
1494,5
1495,9
1496,3
1497,7
1498,7
1499,7
1500,8
1501,1
1502,9
1503,8
1504,3
1505,0
1506,7
1507,2
1508,7
1509,9
1510,4
1511,5
1512,4
1513,9
1514,3
1515,2
1516,1
1517,4
1518,0
1519,2
1520,3
1521,7
1522,5
1523,7
1524,8
1525,8
1526,5
1527,0
1528,6
1529,1
1530,4
1531,7
1532,3
1533,9
1534,0
1535,0
1536,0
1537,6
1538,6
1539,2
1540,3
1541,7
1542,8
1543,4
1544,7
1545,7
1546,9
1547,2
1548,4
1549,1
1550,6
1551,5
1552,2
1553,4
1554,9
1555,9
1556,1
1557,8
1558,4
1559,0
1560,7
1561,8
1562,4
1563,8
1564,7
1565,7
1566,0
1567,7
1568,8
1569,8
1570,6
1571,0
1572,4
1573,8
1574,8
1575,2
1576,4
1577,7
1578,6
1579,6
1580,6
1581,4
1582,7
1583,1
1584,9
1585,9
1586,2
1587,3
1588,5
1589,3
1590,0
1591,0
1592,3
1593,7
1594,6
1595,9
1596,7
1597,9
1598,9
1599,5
1600,4
1601,5
1602,3
1603,6
1604,1
1605,2
1606,3
1607,7
1608,3
1609,3
1610,6
1611,0
1612,3
1613,3
1614,8
1615,4
1616,3
1617,6
1618,3
1619,5
1620,0
1621,2
1622,6
1623,9
1624,0
1625,7
1626,4
1627,6
1628,9
1629,3
1630,5
1631,1
1632,9
1633,6
1634,1
1635,4
1636,5
1637,4
1638,5
1639,0
1640,5
1641,4
1642,5
1643,2
1644,1
1645,3
1646,9
1647,1
1648,9
1649,9
1650,4
1651,0
1652,8
1653,4
1654,5
1655,2
1656,9
1657,2
1658,1
1659,2
1660,1
1661,7
1662,3
1663,6
1664,8
1665,8
1666,4
1667,9
1668,1
1669,9
1670,8
1671,5
1672,3
1673,5
1674,1
1675,1
1676,8
1677,6
1678,5
1679,7
1680,4
1681,4
1682,7
1683,2
1684,3
1685,5
1686,6
1687,8
1688,8
1689,6
1690,2
1691,3
1692,1
1693,0
1694,5
1695,2
1696,9
1697,2
1698,9
1699,6
1700,7
1701,0
1702,4
1703,8
1704,7
1705,1
1706,7
1707,4
1708,1
1709,0
1710,3
1711,7
1712,2
1713,0
1714,0
1715,9
1716,1
1717,1
1718,8
1719,2
1720,8
1721,4
1722,4
1723,2
1724,0
1725,4
1726,6
1727,0
1728,3
1729,1
1730,1
1731,3
1732,3
1733,9
1734,6
1735,7
1736,4
1737,1
1738,5
1739,3
1740,0
1741,8
1742,7
1743,3
1744,9
1745,6
1746,9
1747,3
1748,5
1749,0
1750,2
1751,7
1752,2
1753,5
1754,1
1755,2
1756,5
1757,8
1758,0
1759,8
1760,9
1761,1
1762,5
1763,0
1764,3
1765,0
1766,3
1767,1
1768,4
1769,0
1770,3
1771,7
1772,2
1773,7
1774,1
1775,5
1776,0
1777,7
1778,0
1779,4
1780,3
1781,1
1782,9
1783,4
1784,7
1785,7
1786,1
1787,4
1788,9
1789,9
1790,3
1791,7
1792,1
1793,7
1794,9
1795,0
1796,2
1797,0
1798,3
1799,3
1800,7
1801,6
1802,9
1803,2
1804,3
1805,3
1806,7
1807,7
1808,0
1809,4
1810,7
1811,5
1812,2
1813,9
1814,8
1815,7
1816,4
1817,4
1818,2
1819,6
1820,6
1821,1
1822,9
1823,6
1824,8
1825,2
1826,9
1827,0
1828,8
1829,3
1830,1
1831,1
1832,6
1833,3
1834,5
1835,1
1836,1
1837,1
1838,3
1839,1
1840,2
1841,3
1842,0
1843,2
1844,0
1845,1
1846,3
1847,5
1848,5
1849,7
1850,4
1851,8
1852,9
1853,6
1854,9
1855,6
1856,8
1857,3
1858,6
1859,6
1860,8
1861,5
1862,1
1863,4
1864,2
1865,4
1866,8
1867,5
1868,1
1869,4
1870,9
1871,0
1872,2
1873,4
1874,9
1875,5
1876,7
1877,1
1878,8
1879,3
1880,5
1881,6
1882,9
1883,8
1884,7
1885,1
1886,1
1887,6
1888,7
1889,6
1890,3
1891,2
1892,2
1893,0
1894,8
1895,9
1896,2
1897,5
1898,1
1899,0
1900,8
1901,1
1902,4
1903,5
1904,7
1905,9
1906,6
1907,9
1908,0
1909,6
1910,1
1911,5
1912,6
1913,8
1914,3
1915,8
1916,2
1917,6
1918,5
1919,0
1920,7
1921,4
1922,6
1923,1
1924,3
1925,4
1926,7
1927,3
1928,2
1929,3
1930,4
1931,2
1932,5
1933,2
1934,7
1935,1
1936,7
1937,2
1938,6
1939,4
1940,1
1941,0
1942,8
1943,8
1944,6
1945,0
1946,1
1947,8
1948,2
1949,4
1950,7
1951,7
1952,6
1953,8
1954,3
1955,5
1956,8
1957,4
1958,2
1959,4
1960,0
1961,8
1962,8
1963,3
1964,4
1965,9
1966,2
1967,7
1968,5
1969,8
1970,6
1971,5
1972,6
1973,0
1974,8
1975,6
1976,7
1977,3
1978,6
1979,4
1980,9
1981,4
1982,6
1983,6
1984,3
1985,0
1986,4
1987,1
1988,0
1989,1
1990,6
1991,6
1992,2
1993,9
1994,1
1995,1
1996,0
1997,6
1998,3
1999,9
2000,5
2001,6
2002,5
2003,6
2004,5
2005,9
2006,4
2007,6
2008,4
2009,3
2010,9
2011,1
2012,7
2013,4
2014,1
2015,9
2016,1
2017,2
2018,1
2019,1
2020,9
2021,3
2022,5
2023,4
2024,0
2025,9
2026,3
2027,6
2028,1
2029,7
2030,5
2031,5
2032,3
2033,3
2034,0
2035,1
2036,3
2037,7
2038,5
2039,8
2040,6
2041,5
2042,1
2043,0
2044,4
2045,7
2046,3
2047,4
2048,6
2049,7
2050,9
2051,8
2052,1
2053,8
2054,9
2055,9
2056,2
2057,8
2058,6
2059,2
2060,7
2061,0
2062,0
2063,6
2064,7
2065,5
2066,8
2067,6
2068,0
2069,9
2070,3
2071,9
2072,1
2073,3
2074,5
2075,4
2076,3
2077,3
2078,5
2079,5
2080,6
2081,3
2082,0
2083,2
2084,3
2085,4
2086,2
2087,3
2088,0
2089,9
2090,9
2091,4
2092,7
2093,2
2094,8
2095,4
2096,7
2097,0
2098,6
2099,2
2100,4
2101,5
2102,2
2103,8
2104,5
2105,7
2106,5
2107,0
2108,8
2109,2
2110,7
2111,2
2112,8
2113,2
2114,5
2115,5
2116,0
2117,6
2118,4
2119,0
2120,8
2121,4
2122,8
2123,2
2124,7
2125,4
2126,5
2127,2
2128,0
2129,3
2130,2
2131,9
2132,6
2133,7
2134,2
2135,5
2136,1
2137,1
2138,1
2139,2
2140,3
2141,6
2142,7
2143,8
2144,7
2145,6
2146,4
2147,8
2148,9
2149,9
2150,8
2151,6
2152,3
2153,8
2154,3
2155,1
2156,0
2157,6
2158,2
2159,2
2160,5
2161,6
2162,4
2163,5
2164,8
2165,1
2166,4
2167,1
2168,7
2169,8
2170,4
2171,6
2172,1
2173,8
2174,4
2175,5
2176,1
2177,2
2178,3
2179,0
2180,8
2181,5
2182,9
2183,2
2184,4
2185,2
2186,5
2187,3
2188,7
2189,0
2190,1
2191,0
2192,2
2193,5
2194,7
2195,6
2196,7
2197,9
2198,4
2199,2
2200,6
2201,2
2202,4
2203,4
2204,8
2205,0
2206,4
2207,4
2208,5
2209,8
2210,0
2211,6
2212,8
2213,9
2214,8
2215,5
2216,6
2217,9
2218,0
2219,4
2220,8
2221,7
2222,1
2223,3
2224,4
2225,5
2226,8
2227,0
2228,9
2229,1
2230,3
2231,3
2232,6
2233,9
2234,8
2235,7
2236,1
2237,0
2238,6
2239,7
2240,1
2241,7
2242,5
2243,2
2244,7
2245,9
2246,1
2247,8
2248,5
2249,2
2250,4
2251,9
2252,4
2253,7
2254,2
2255,2
2256,3
2257,4
2258,9
2259,1
2260,9
2261,2
2262,1
2263,7
2264,9
2265,4
2266,4
2267,6
2268,6
2269,0
2270,2
2271,7
2272,8
2273,8
2274,1
2275,9
2276,7
2277,1
2278,1
2279,7
2280,5
2281,3
2282,3
2283,5
2284,1
2285,3
2286,7
2287,6
2288,1
2289,3
2290,8
2291,7
2292,5
2293,9
2294,6
2295,0
2296,0
2297,2
2298,8
2299,8
2300,7
2301,3
2302,7
2303,1
2304,3
2305,0
2306,8
2307,4
2308,4
2309,5
2310,8
2311,9
2312,2
2313,3
2314,9
2315,7
2316,1
2317,1
2318,7
2319,0
2320,4
2321,4
2322,6
2323,5
2324,9
2325,1
2326,2
2327,5
2328,2
2329,0
2330,0
2331,4
2332,6
2333,7
2334,0
2335,9
2336,1
2337,4
2338,6
2339,4
2340,5
2341,4
2342,9
2343,9
2344,1
2345,7
2346,9
2347,5
2348,3
2349,3
2350,8
2351,2
2352,2
2353,6
2354,2
2355,2
2356,1
2357,1
2358,1
2359,2
2360,1
2361,6
2362,9
2363,8
2364,4
2365,3
2366,7
2367,1
2368,6
2369,4
2370,5
2371,0
2372,9
2373,7
2374,4
2375,2
2376,4
2377,0
2378,7
2379,0
2380,1
2381,9
2382,8
2383,8
2384,6
2385,0
2386,0
2387,4
2388,1
2389,6
2390,8
2391,2
2392,2
2393,3
2394,8
2395,9
2396,8
2397,2
2398,2
2399,1
2400,7
2401,5
2402,4
2403,4
2404,0
2405,4
2406,3
2407,8
2408,7
2409,3
2410,1
2411,0
2412,1
2413,2
2414,5
2415,9
2416,2
2417,1
2418,0
2419,1
2420,8
2421,9
2422,1
2423,6
2424,8
2425,3
2426,8
2427,4
2428,3
2429,6
2430,2
2431,8
2432,3
2433,2
2434,2
2435,1
2436,0
2437,4
2438,1
2439,9
2440,2
2441,4
2442,3
2443,7
2444,9
2445,1
2446,5
2447,2
2448,4
2449,9
2450,5
2451,3
2452,8
2453,5
2454,3
2455,6
2456,0
2457,4
2458,4
2459,6
2460,2
2461,5
2462,0
2463,0
2464,7
2465,4
2466,6
2467,6
2468,8
2469,6
2470,6
2471,8
2472,6
2473,9
2474,1
2475,7
2476,2
2477,5
2478,9
2479,9
2480,0
2481,7
2482,2
2483,7
2484,6
2485,7
2486,0
2487,6
2488,5
2489,4
2490,4
2491,7
2492,2
2493,0
2494,9
2495,9
2496,2
2497,2
2498,9
2499,4
2500,4
2501,2
2502,3
2503,3
2504,2
2505,1
2506,7
2507,0
2508,7
2509,6
2510,4
2511,1
2512,3
2513,8
2514,7
2515,4
2516,6
2517,9
2518,2
2519,5
2520,1
2521,3
2522,7
2523,3
2524,7
2525,1
2526,5
2527,5
2528,0
2529,9
2530,1
2531,4
2532,0
2533,6
2534,3
2535,3
2536,6
2537,0
2538,4
2539,9
2540,7
2541,5
2542,1
2543,6
2544,8
2545,9
2546,5
2547,5
2548,7
2549,9
2550,3
2551,8
2552,3
2553,8
2554,1
2555,5
2556,3
2557,5
2558,0
2559,5
2560,5
2561,6
2562,8
2563,6
2564,7
2565,7
2566,7
2567,3
2568,7
2569,0
2570,5
2571,9
2572,0
2573,2
2574,8
2575,7
2576,3
2577,1
2578,7
2579,2
2580,8
2581,6
2582,5
2583,7
2584,3
2585,8
2586,9
2587,3
2588,3
2589,7
2590,0
2591,1
2592,7
2593,0
2594,0
2595,3
2596,7
2597,2
2598,5
2599,8
2600,1
2601,8
2602,6
2603,2
2604,9
2605,5
2606,7
2607,5
2608,1
2609,8
2610,6
2611,8
2612,5
2613,1
2614,4
2615,8
2616,4
2617,5
2618,8
2619,3
2620,0
2621,6
2622,2
2623,7
2624,3
2625,3
2626,2
2627,1
2628,0
2629,2
2630,3
2631,4
2632,0
2633,3
2634,9
2635,3
2636,2
2637,8
2638,9
2639,0
2640,3
2641,8
2642,0
2643,9
2644,6
2645,5
2646,4
2647,7
2648,3
2649,0
2650,0
2651,8
2652,6
2653,2
2654,5
2655,1
2656,1
2657,0
2658,0
2659,4
2660,4
2661,0
2662,1
2663,2
2664,3
2665,2
2666,7
2667,7
2668,8
2669,5
2670,2
2671,5
2672,7
2673,6
2674,9
2675,1
2676,4
2677,1
2678,6
2679,4
2680,2
2681,4
2682,3
2683,5
2684,4
2685,3
2686,9
2687,5
2688,0
2689,1
2690,5
2691,3
2692,8
2693,9
2694,1
2695,9
2696,5
2697,9
2698,5
2699,5
2700,2
2701,7
2702,4
2703,6
2704,0
2705,1
2706,8
2707,1
2708,0
2709,4
2710,4
2711,7
2712,6
2713,3
2714,8
2715,0
2716,4
2717,3
2718,0
2719,6
2720,1
2721,9
2722,5
2723,1
2724,3
2725,8
2726,1
2727,2
2728,5
2729,6
2730,2
2731,7
2732,3
2733,6
2734,0
2735,1
2736,9
2737,7
2738,6
2739,6
2740,8
2741,9
2742,2
2743,9
2744,5
2745,8
2746,3
2747,1
2748,0
2749,0
2750,7
2751,6
2752,6
2753,2
2754,1
2755,6
2756,9
2757,2
2758,1
2759,8
2760,6
2761,9
2762,0
2763,6
2764,0
2765,0
2766,0
2767,6
2768,3
2769,5
2770,9
2771,6
2772,9
2773,5
2774,5
2775,8
2776,5
2777,3
2778,0
2779,4
2780,0
2781,3
2782,9
2783,6
2784,8
2785,2
2786,3
2787,1
2788,2
2789,1
2790,1
2791,5
2792,6
2793,9
2794,8
2795,0
2796,6
2797,6
2798,5
2799,5
2800,3
2801,8
2802,6
2803,2
2804,1
2805,4
2806,5
2807,4
2808,3
2809,7
2810,8
2811,3
2812,0
2813,9
2814,2
2815,5
2816,1
2817,1
2818,0
2819,4
2820,4
2821,7
2822,0
2823,1
2824,7
2825,0
2826,1
2827,6
2828,1
2829,4
2830,5
2831,6
2832,6
2833,5
2834,7
2835,5
2836,4
2837,2
2838,7
2839,2
2840,5
2841,3
2842,7
2843,0
2844,7
2845,7
2846,9
2847,6
2848,4
2849,2
2850,8
2851,5
2852,7
2853,8
2854,3
2855,9
2856,5
2857,8
2858,9
2859,9
2860,8
2861,6
2862,2
2863,8
2864,9
2865,2
2866,3
2867,6
2868,1
2869,1
2870,8
2871,9
2872,3
2873,4
2874,0
2875,7
2876,9
2877,6
2878,9
2879,1
2880,9
2881,1
2882,3
2883,4
2884,9
2885,3
2886,1
2887,4
2888,7
2889,7
2890,4
2891,7
2892,2
2893,9
2894,3
2895,0
2896,8
2897,0
2898,8
2899,4
2900,0
2901,4
2902,4
2903,1
2904,5
2905,2
2906,8
2907,3
2908,4
2909,9
2910,5
2911,2
2912,8
2913,1
2914,5
2915,3
2916,7
2917,9
2918,4
2919,2
2920,5
2921,6
2922,3
2923,5
2924,9
2925,3
2926,5
2927,9
2928,2
2929,1
2930,9
2931,5
2932,3
2933,0
2934,6
2935,9
2936,8
2937,4
2938,0
2939,4
2940,5
2941,2
2942,9
2943,0
2944,1
2945,0
2946,7
2947,1
2948,6
2949,5
2950,8
2951,1
2952,5
2953,5
2954,5
2955,0
2956,3
2957,5
2958,5
2959,9
2960,2
2961,8
2962,2
2963,0
2964,4
2965,9
2966,1
2967,9
2968,7
2969,7
2970,5
2971,7
2972,2
2973,0
2974,9
2975,1
2976,8
2977,6
2978,2
2979,3
2980,9
2981,6
2982,2
2983,1
2984,9
2985,1
2986,3
2987,5
2988,5
2989,0
2990,3
2991,8
2992,3
2993,3
2994,7
2995,6
2996,8
2997,0
2998,1
2999,9
3000,0
3001,6
3002,9
3003,8
3004,1
3005,2
3006,9
3007,9
3008,5
3009,9
3010,7
3011,3
3012,7
3013,8
3014,0
3015,1
3016,3
3017,0
3018,4
3019,6
3020,1
3021,0
3022,2
3023,5
3024,8
3025,4
3026,4
3027,1
3028,1
3029,5
3030,4
3031,8
3032,6
3033,0
3034,6
3035,9
3036,2
3037,6
3038,2
3039,9
3040,1
3041,7
3042,9
3043,4
3044,0
3045,0
3046,3
3047,8
3048,2
3049,2
3050,3
3051,1
3052,6
3053,0
3054,5
3055,7
3056,7
3057,9
3058,2
3059,6
3060,7
3061,7
3062,7
3063,8
3064,6
3065,8
3066,3
3067,4
3068,6
3069,8
3070,4
3071,1
3072,2
3073,8
3074,2
3075,3
3076,9
3077,4
3078,0
3079,3
3080,7
3081,3
3082,2
3083,3
3084,3
3085,7
3086,3
3087,4
3088,0
3089,6
3090,2
3091,0
3092,8
3093,1
3094,5
3095,3
3096,5
3097,4
3098,1
3099,9
3100,1
3101,5
3102,7
3103,5
3104,7
3105,3
3106,2
3107,2
3108,7
3109,3
3110,7
3111,3
3112,7
3113,8
3114,5
3115,6
3116,9
3117,2
3118,9
3119,6
3120,5
3121,3
3122,6
3123,7
3124,4
3125,1
3126,7
3127,1
3128,5
3129,2
3130,3
3131,6
3132,3
3133,2
3134,4
3135,2
3136,6
3137,9
3138,4
3139,0
3140,8
3141,0
3142,6
3143,2
3144,1
3145,6
3146,5
3147,3
3148,9
3149,1
3150,9
3151,3
3152,2
3153,1
3154,8
3155,4
3156,4
3157,6
3158,3
3159,8
3160,6
3161,4
3162,7
3163,7
3164,8
3165,6
3166,9
3167,7
3168,3
3169,9
3170,4
3171,0
3172,5
3173,9
3174,6
3175,4
3176,1
3177,2
3178,3
3179,0
3180,0
3181,2
3182,6
3183,6
3184,5
3185,7
3186,0
3187,8
3188,6
3189,4
3190,6
3191,9
3192,0
3193,7
3194,2
3195,4
3196,2
3197,1
3198,8
3199,8
3200,5
3201,9
3202,2
3203,7
3204,1
3205,8
3206,8
3207,3
3208,2
3209,7
3210,6
3211,0
3212,1
3213,2
3214,7
3215,1
3216,0
3217,8
3218,3
3219,6
3220,0
3221,5
3222,3
3223,6
3224,2
3225,8
3226,1
3227,0
3228,1
3229,4
3230,2
3231,1
3232,1
3233,4
3234,4
3235,4
3236,4
3237,7
3238,1
3239,6
3240,2
3241,9
3242,9
3243,0
3244,0
3245,1
3246,8
3247,8
3248,4
3249,3
3250,4
3251,2
3252,0
3253,6
3254,1
3255,6
3256,1
3257,2
3258,2
3259,2
3260,1
3261,2
3262,3
3263,7
3264,8
3265,1
3266,0
3267,0
3268,2
3269,1
3270,6
3271,6
3272,0
3273,1
3274,6
3275,2
3276,5
3277,1
3278,7
3279,4
3280,8
3281,2
3282,1
3283,4
3284,3
3285,8
3286,3
3287,9
3288,9
3289,4
3290,8
3291,3
3292,4
3293,7
3294,2
3295,7
3296,5
3297,7
3298,0
3299,4
3300,3
3301,3
3302,2
3303,6
3304,7
3305,6
3306,0
3307,0
3308,6
3309,7
3310,7
3311,0
3312,5
3313,5
3314,8
3315,1
3316,0
3317,7
3318,0
3319,2
3320,8
3321,1
3322,5
3323,0
3324,8
3325,8
3326,0
3327,3
3328,2
3329,7
3330,2
3331,2
3332,6
3333,4
3334,9
3335,5
3336,5
3337,7
3338,2
3339,9
3340,2
3341,8
3342,4
3343,6
3344,8
3345,6
3346,5
3347,0
3348,0
3349,8
3350,7
3351,6
3352,1
3353,7
3354,1
3355,1
3356,2
3357,7
3358,4
3359,0
3360,0
3361,7
3362,7
3363,6
3364,3
3365,8
3366,6
3367,4
3368,2
3369,0
3370,1
3371,4
3372,0
3373,5
3374,7
3375,8
3376,2
3377,7
3378,4
3379,7
3380,1
3381,1
3382,3
3383,6
3384,6
3385,6
3386,9
3387,1
3388,9
3389,9
3390,8
3391,3
3392,6
3393,9
3394,5
3395,9
3396,6
3397,2
3398,4
3399,6
3400,7
3401,7
3402,0
3403,6
3404,6
3405,9
3406,9
3407,8
3408,3
3409,5
3410,3
3411,4
3412,9
3413,0
3414,0
3415,5
3416,2
3417,5
3418,0
3419,7
3420,1
3421,1
3422,1
3423,0
3424,7
3425,6
3426,7
3427,9
3428,6
3429,6
3430,4
3431,1
3432,4
3433,3
3434,1
3435,1
3436,2
3437,2
3438,9
3439,1
3440,0
3441,8
3442,7
3443,6
3444,3
3445,4
3446,0
3447,0
3448,6
3449,3
3450,3
3451,0
3452,7
3453,1
3454,7
3455,1
3456,1
3457,3
3458,1
3459,0
3460,9
3461,9
3462,7
3463,5
3464,4
3465,1
3466,4
3467,8
3468,9
3469,5
3470,3
3471,5
3472,1
3473,9
3474,8
3475,2
3476,7
3477,3
3478,9
3479,9
3480,0
3481,1
3482,0
3483,2
3484,9
3485,3
3486,9
3487,3
3488,3
3489,6
3490,2
3491,4
3492,9
3493,8
3494,3
3495,7
3496,4
3497,0
3498,4
3499,7
3500,8
3501,4
3502,9
3503,8
3504,1
3505,9
3506,7
3507,5
3508,9
3509,2
3510,8
3511,2
3512,2
3513,0
3514,2
3515,2
3516,3
3517,8
3518,4
3519,6
3520,8
3521,4
3522,8
3523,2
3524,4
3525,6
3526,7
3527,9
3528,3
3529,3
3530,9
3531,4
3532,3
3533,1
3534,4
3535,4
3536,7
3537,0
3538,5
3539,9
3540,6
3541,0
3542,4
3543,4
3544,4
3545,4
3546,6
3547,1
3548,2
3549,3
3550,3
3551,6
3552,4
3553,5
3554,9
3555,6
3556,8
3557,5
3558,6
3559,0
3560,8
3561,6
3562,4
3563,1
3564,8
3565,6
3566,5
3567,2
3568,5
3569,4
3570,5
3571,5
3572,4
3573,7
3574,2
3575,0
3576,7
3577,8
3578,2
3579,2
3580,3
3581,7
3582,0
3583,1
3584,8
3585,0
3586,7
3587,1
3588,9
3589,8
3590,7
3591,5
3592,9
3593,9
3594,1
3595,7
3596,5
3597,4
3598,3
3599,1
3600,2
3601,2
3602,1
3603,6
3604,6
3605,7
3606,1
3607,1
3608,4
3609,0
3610,7
3611,4
3612,2
3613,4
3614,0
3615,6
3616,4
3617,7
3618,6
3619,9
3620,5
3621,3
3622,4
3623,6
3624,5
3625,0
3626,1
3627,8
3628,8
3629,2
3630,8
3631,3
3632,5
3633,7
3634,8
3635,0
3636,8
3637,5
3638,7
3639,1
3640,1
3641,0
3642,1
3643,3
3644,7
3645,8
3646,5
3647,0
3648,7
3649,1
3650,1
3651,0
3652,1
3653,1
3654,4
3655,5
3656,2
3657,9
3658,6
3659,2
3660,3
3661,0
3662,2
3663,0
3664,5
3665,4
3666,6
3667,9
3668,7
3669,2
3670,1
3671,3
3672,6
3673,4
3674,1
3675,9
3676,2
3677,4
3678,0
3679,5
3680,1
3681,0
3682,2
3683,2
3684,6
3685,4
3686,4
3687,3
3688,9
3689,6
3690,1
3691,6
3692,5
3693,7
3694,9
3695,2
3696,0
3697,2
3698,6
3699,0
3700,1
3701,4
3702,3
3703,4
3704,2
3705,8
3706,8
3707,0
3708,8
3709,2
3710,9
3711,0
3712,9
3713,6
3714,7
3715,6
3716,3
3717,3
3718,3
3719,4
3720,7
3721,7
3722,7
3723,4
3724,9
3725,0
3726,6
3727,9
3728,3
3729,4
3730,2
3731,9
3732,2
3733,8
3734,1
3735,0
3736,0
3737,7
3738,8
3739,3
3740,5
3741,3
3742,1
3743,3
3744,7
3745,6
3746,1
3747,3
3748,1
3749,6
3750,4
3751,5
3752,1
3753,4
3754,7
3755,5
3756,9
3757,0
3758,8
3759,4
3760,9
3761,9
3762,1
3763,6
3764,5
3765,0
3766,1
3767,3
3768,2
3769,0
3770,3
3771,4
3772,8
3773,2
3774,2
3775,0
3776,2
3777,8
3778,1
3779,5
3780,1
3781,6
3782,8
3783,8
3784,9
3785,1
3786,2
3787,1
3788,3
3789,5
3790,1
3791,0
3792,9
3793,4
3794,4
3795,8
3796,2
3797,1
3798,5
3799,9
3800,7
3801,6
3802,6
3803,2
3804,0
3805,0
3806,0
3807,5
3808,8
3809,5
3810,1
3811,5
3812,3
3813,3
3814,8
3815,5
3816,1
3817,8
3818,2
3819,0
3820,4
3821,4
3822,4
3823,6
3824,2
3825,3
3826,3
3827,5
3828,6
3829,4
3830,8
3831,0
3832,8
3833,2
3834,8
3835,3
3836,6
3837,7
3838,5
3839,8
3840,2
3841,9
3842,4
3843,9
3844,1
3845,2
3846,8
3847,6
3848,0
3849,7
3850,0
3851,9
3852,1
3853,1
3854,5
3855,7
3856,5
3857,9
3858,9
3859,1
3860,2
3861,5
3862,9
3863,2
3864,5
3865,0
3866,4
3867,1
3868,0
3869,8
3870,4
3871,0
3872,8
3873,9
3874,8
3875,9
3876,4
3877,2
3878,5
3879,7
3880,9
3881,8
3882,9
3883,8
3884,0
3885,9
3886,9
3887,6
3888,8
3889,9
3890,9
3891,5
3892,9
3893,8
3894,6
3895,1
3896,0
3897,3
3898,3
3899,5
3900,2
3901,1
3902,6
3903,5
3904,0
3905,2
3906,8
3907,3
3908,5
3909,6
3910,2
3911,3
3912,0
3913,2
3914,2
3915,6
3916,4
3917,3
3918,5
3919,5
3920,1
3921,7
3922,2
3923,1
3924,6
3925,9
3926,1
3927,3
3928,9
3929,5
3930,5
3931,1
3932,6
3933,2
3934,2
3935,8
3936,6
3937,7
3938,1
3939,4
3940,6
3941,0
3942,4
3943,0
3944,3
3945,3
3946,2
3947,8
3948,3
3949,6
3950,8
3951,9
3952,8
3953,5
3954,3
3955,8
3956,5
3957,4
3958,5
3959,2
3960,0
3961,5
3962,5
3963,3
3964,2
3965,8
3966,3
3967,9
3968,4
3969,5
3970,7
3971,9
3972,4
3973,6
3974,7
3975,1
3976,3
3977,7
3978,3
3979,6
3980,6
3981,0
3982,9
3983,0
3984,1
3985,9
3986,4
3987,2
3988,8
3989,8
3990,0
3991,1
3992,6
3993,9
3994,7
3995,5
3996,3
3997,4
3998,7
3999,4
4000,9
4001,4
4002,4
4003,3
4004,6
4005,3
4006,1
4007,1
4008,7
4009,6
4010,9
4011,1
4012,8
4013,4
4014,1
4015,1
4016,9
4017,9
4018,9
4019,3
4020,6
4021,8
4022,1
4023,6
4024,0
4025,4
4026,1
4027,3
4028,7
4029,7
4030,4
4031,9
4032,5
4033,1
4034,0
4035,0
4036,1
4037,1
4038,6
4039,2
4040,1
4041,9
4042,8
4043,4
4044,0
4045,3
4046,6
4047,4
4048,9
4049,0
4050,7
4051,1
4052,6
4053,5
4054,7
4055,5
4056,2
4057,5
4058,1
4059,8
4060,5
4061,4
4062,7
4063,0
4064,5
4065,7
4066,6
4067,2
4068,5
4069,8
4070,1
4071,0
4072,4
4073,5
4074,7
4075,1
4076,8
4077,6
4078,1
4079,7
4080,0
4081,0
4082,6
4083,0
4084,7
4085,3
4086,1
4087,8
4088,3
4089,9
4090,7
4091,0
4092,0
4093,8
4094,4
4095,5
4096,9
4097,8
4098,3
4099,2
4100,7
4101,2
4102,9
4103,7
4104,2
4105,1
4106,1
4107,3
4108,7
4109,5
4110,3
4111,1
4112,9
4113,8
4114,2
4115,2
4116,2
4117,8
4118,8
4119,5
4120,7
4121,3
4122,8
4123,9
4124,8
4125,8
4126,6
4127,8
4128,2
4129,3
4130,9
4131,7
4132,5
4133,6
4134,2
4135,9
4136,2
4137,8
4138,8
4139,1
4140,6
4141,2
4142,8
4143,7
4144,9
4145,1
4146,8
4147,0
4148,1
4149,7
4150,2
4151,0
4152,7
4153,5
4154,1
4155,9
4156,0
4157,2
4158,0
4159,9
4160,3
4161,6
4162,2
4163,3
4164,7
4165,3
4166,8
4167,0
4168,2
4169,1
4170,1
4171,1
4172,1
4173,4
4174,2
4175,9
4176,7
4177,6
4178,5
4179,1
4180,1
4181,2
4182,1
4183,9
4184,9
4185,9
4186,1
4187,0
4188,2
4189,0
4190,2
4191,1
4192,1
4193,4
4194,6
4195,4
4196,1
4197,5
4198,4
4199,9
4200,7
4201,7
4202,1
4203,5
4204,6
4205,2
4206,2
4207,2
4208,8
4209,0
4210,6
4211,9
4212,5
4213,2
4214,9
4215,7
4216,7
4217,1
4218,4
4219,8
4220,5
4221,3
4222,4
4223,3
4224,4
4225,7
4226,7
4227,5
4228,0
4229,2
4230,4
4231,8
4232,8
4233,1
4234,5
4235,3
4236,9
4237,5
4238,9
4239,7
4240,5
4241,9
4242,0
4243,3
4244,6
4245,3
4246,9
4247,8
4248,2
4249,1
4250,1
4251,2
4252,8
4253,6
4254,8
4255,5
4256,5
4257,3
4258,9
4259,4
4260,9
4261,2
4262,5
4263,1
4264,5
4265,1
4266,9
4267,4
4268,1
4269,4
4270,6
4271,3
4272,3
4273,9
4274,1
4275,2
4276,2
4277,3
4278,3
4279,0
4280,2
4281,9
4282,0
4283,0
4284,9
4285,9
4286,6
4287,0
4288,9
4289,3
4290,7
4291,8
4292,4
4293,1
4294,9
4295,9
4296,7
4297,2
4298,1
4299,9
4300,9
4301,5
4302,9
4303,5
4304,1
4305,1
4306,8
4307,7
4308,5
4309,1
4310,9
4311,5
4312,3
4313,5
4314,9
4315,9
4316,5
4317,9
4318,3
4319,1
4320,9
4321,0
4322,9
4323,7
4324,5
4325,4
4326,9
4327,2
4328,0
4329,1
4330,0
4331,5
4332,1
4333,4
4334,9
4335,3
4336,3
4337,6
4338,1
4339,5
4340,2
4341,5
4342,2
4343,2
4344,0
4345,9
4346,2
4347,6
4348,6
4349,0
4350,1
4351,2
4352,0
4353,3
4354,0
4355,2
4356,9
4357,5
4358,7
4359,9
4360,7
4361,5
4362,0
4363,8
4364,9
4365,5
4366,0
4367,3
4368,2
4369,5
4370,4
4371,6
4372,8
4373,8
4374,4
4375,6
4376,8
4377,8
4378,4
4379,5
4380,4
4381,8
4382,5
4383,9
4384,9
4385,2
4386,2
4387,1
4388,2
4389,6
4390,8
4391,8
4392,7
4393,0
4394,3
4395,6
4396,4
4397,4
4398,3
4399,8
4400,8
4401,9
4402,2
4403,2
4404,0
4405,0
4406,9
4407,3
4408,9
4409,9
4410,1
4411,9
4412,8
4413,6
4414,6
4415,4
4416,2
4417,6
4418,9
4419,2
4420,8
4421,5
4422,4
4423,5
4424,7
4425,9
4426,9
4427,9
4428,2
4429,1
4430,8
4431,3
4432,4
4433,0
4434,3
4435,8
4436,7
4437,9
4438,3
4439,4
4440,6
4441,5
4442,6
4443,2
4444,3
4445,9
4446,2
4447,6
4448,0
4449,0
4450,6
4451,1
4452,7
4453,8
4454,7
4455,9
4456,8
4457,2
4458,0
4459,4
4460,7
4461,7
4462,5
4463,0
4464,5
4465,6
4466,4
4467,6
4468,7
4469,4
4470,3
4471,0
4472,7
4473,5
4474,0
4475,7
4476,4
4477,2
4478,6
4479,8
4480,9
4481,9
4482,4
4483,2
4484,4
4485,6
4486,7
4487,8
4488,7
4489,6
4490,9
4491,4
4492,1
4493,3
4494,7
4495,3
4496,0
4497,8
4498,7
4499,2
4500,6
4501,1
4502,3
4503,9
4504,2
4505,2
4506,3
4507,2
4508,1
4509,8
4510,3
4511,2
4512,4
4513,6
4514,8
4515,4
4516,0
4517,1
4518,2
4519,8
4520,4
4521,5
4522,7
4523,7
4524,8
4525,1
4526,1
4527,3
4528,0
4529,3
4530,5
4531,7
4532,0
4533,3
4534,1
4535,9
4536,3
4537,6
4538,3
4539,1
4540,7
4541,8
4542,3
4543,0
4544,8
4545,4
4546,8
4547,2
4548,4
4549,5
4550,2
4551,9
4552,7
4553,3
4554,9
4555,0
4556,9
4557,9
4558,6
4559,4
4560,2
4561,9
4562,7
4563,2
4564,1
4565,1
4566,6
4567,7
4568,4
4569,7
4570,5
4571,9
4572,6
4573,8
4574,2
4575,1
4576,2
4577,4
4578,5
4579,9
4580,6
4581,1
4582,3
4583,2
4584,5
4585,9
4586,9
4587,3
4588,6
4589,1
4590,1
4591,4
4592,6
4593,9
4594,7
4595,2
4596,1
4597,5
4598,1
4599,4
4600,6
4601,3
4602,8
4603,1
4604,1
4605,0
4606,3
4607,1
4608,6
4609,8
4610,4
4611,9
4612,0
4613,7
4614,3
4615,0
4616,4
4617,9
4618,0
4619,6
4620,6
4621,0
4622,3
4623,6
4624,7
4625,7
4626,2
4627,8
4628,6
4629,0
4630,8
4631,3
4632,0
4633,2
4634,9
4635,8
4636,5
4637,2
4638,5
4639,3
4640,9
4641,8
4642,0
4643,0
4644,1
4645,9
4646,5
4647,1
4648,3
4649,9
4650,6
4651,0
4652,1
4653,4
4654,1
4655,7
4656,1
4657,2
4658,3
4659,7
4660,9
4661,7
4662,4
4663,9
4664,9
4665,3
4666,9
4667,2
4668,8
4669,2
4670,7
4671,1
4672,8
4673,0
4674,9
4675,1
4676,0
4677,1
4678,7
4679,7
4680,9
4681,6
4682,9
4683,9
4684,9
4685,2
4686,1
4687,6
4688,1
4689,3
4690,5
4691,9
4692,1
4693,9
4694,7
4695,6
4696,9
4697,5
4698,7
4699,6
4700,6
4701,9
4702,9
4703,6
4704,3
4705,6
4706,2
4707,9
4708,8
4709,1
4710,2
4711,2
4712,5
4713,5
4714,2
4715,3
4716,7
4717,2
4718,1
4719,0
4720,1
4721,0
4722,4
4723,5
4724,2
4725,8
4726,2
4727,8
4728,3
4729,5
4730,1
4731,7
4732,8
4733,1
4734,1
4735,2
4736,9
4737,2
4738,8
4739,4
4740,0
4741,3
4742,0
4743,7
4744,8
4745,8
4746,4
4747,7
4748,7
4749,8
4750,5
4751,8
4752,6
4753,9
4754,8
4755,1
4756,3
4757,8
4758,0
4759,3
4760,1
4761,7
4762,8
4763,5
4764,6
4765,1
4766,6
4767,5
4768,7
4769,4
4770,9
4771,3
4772,5
4773,4
4774,7
4775,1
4776,2
4777,0
4778,8
4779,1
4780,6
4781,0
4782,7
4783,3
4784,9
4785,7
4786,8
4787,9
4788,6
4789,0
4790,8
4791,6
4792,4
4793,8
4794,7
4795,7
4796,9
4797,3
4798,8
4799,6
4800,9
4801,7
4802,2
4803,3
4804,4
4805,0
4806,2
4807,1
4808,3
4809,3
4810,5
4811,5
4812,7
4813,2
4814,4
4815,0
4816,7
4817,2
4818,8
4819,3
4820,0
4821,8
4822,7
4823,8
4824,6
4825,0
4826,8
4827,4
4828,4
4829,5
4830,8
4831,5
4832,6
4833,6
4834,3
4835,0
4836,9
4837,3
4838,7
4839,6
4840,8
4841,9
4842,3
4843,4
4844,9
4845,5
4846,8
4847,9
4848,1
4849,2
4850,8
4851,8
4852,6
4853,8
4854,1
4855,3
4856,7
4857,9
4858,0
4859,1
4860,1
4861,9
4862,7
4863,0
4864,8
4865,1
4866,7
4867,4
4868,5
4869,7
4870,1
4871,2
4872,1
4873,1
4874,3
4875,0
4876,6
4877,2
4878,1
4879,2
4880,4
4881,5
4882,7
4883,6
4884,6
4885,9
4886,3
4887,1
4888,0
4889,5
4890,2
4891,8
4892,0
4893,5
4894,4
4895,3
4896,8
4897,4
4898,6
4899,6
4900,2
4901,7
4902,9
4903,5
4904,1
4905,3
4906,2
4907,4
4908,3
4909,6
4910,1
4911,9
4912,4
4913,4
4914,7
4915,6
4916,5
4917,4
4918,1
4919,9
4920,9
4921,2
4922,7
4923,8
4924,0
4925,1
4926,3
4927,6
4928,1
4929,3
4930,4
4931,1
4932,1
4933,1
4934,5
4935,6
4936,0
4937,7
4938,0
4939,7
4940,2
4941,3
4942,2
4943,5
4944,2
4945,2
4946,9
4947,4
4948,9
4949,8
4950,1
4951,8
4952,1
4953,6
4954,1
4955,2
4956,7
4957,8
4958,0
4959,0
4960,0
4961,8
4962,2
4963,2
4964,9
4965,2
4966,2
4967,1
4968,9
4969,9
4970,2
4971,7
4972,5
4973,1
4974,3
4975,4
4976,9
4977,4
4978,1
4979,7
4980,5
4981,6
4982,2
4983,8
4984,3
4985,1
4986,2
4987,8
4988,4
4989,9
4990,9
4991,8
4992,7
4993,0
4994,7
4995,7
4996,2
4997,3
4998,2
4999,4
5000,0
5001,3
5002,9
5003,9
5004,8
5005,4
5006,1
5007,6
5008,6
5009,0
5010,9
5011,6
5012,8
5013,6
5014,1
5015,1
5016,9
5017,8
5018,9
5019,2
5020,3
5021,5
5022,5
5023,9
5024,4
5025,2
5026,1
5027,9
5028,4
5029,3
5030,9
5031,6
5032,0
5033,4
5034,0
5035,6
5036,0
5037,1
5038,2
5039,3
5040,4
5041,7
5042,8
5043,9
5044,0
5045,1
5046,2
5047,3
5048,4
5049,7
5050,8
5051,9
5052,0
5053,1
5054,2
5055,8
5056,4
5057,5
5058,6
5059,7
5060,8
5061,9
5062,8
5063,3
5064,4
5065,7
5066,8
5067,6
5068,3
5069,9
5070,0
5071,9
5072,7
5073,1
5074,9
5075,3
5076,8
5077,4
5078,7
5079,3
5080,0
5081,9
5082,1
5083,4
5084,5
5085,4
5086,6
5087,2
5088,0
5089,6
5090,2
5091,1
5092,1
5093,1
5094,1
5095,7
5096,2
5097,4
5098,7
5099,5
5100,2
5101,9
5102,4
5103,5
5104,8
5105,4
5106,2
5107,9
5108,7
5109,0
5110,0
5111,7
5112,5
5113,1
5114,1
5115,7
5116,6
5117,6
5118,6
5119,8
5120,2
5121,2
5122,9
5123,7
5124,4
5125,0
5126,2
5127,4
5128,2
5129,1
5130,8
5131,9
5132,6
5133,1
5134,0
5135,5
5136,9
5137,6
5138,9
5139,8
5140,0
5141,5
5142,0
5143,8
5144,3
5145,9
5146,6
5147,3
5148,0
5149,1
5150,2
5151,3
5152,4
5153,5
5154,6
5155,7
5156,0
5157,1
5158,2
5159,3
5160,4
5161,5
5162,6
5163,7
5164,8
5165,9
5166,0
5167,1
5168,3
5169,3
5170,4
5171,5
5172,6
5173,7
5174,8
5175,5
5176,4
5177,8
5178,7
5179,4
5180,7
5181,7
5182,3
5183,9
5184,8
5185,8
5186,3
5187,1
5188,5
5189,8
5190,2
5191,7
5192,4
5193,2
5194,1
5195,5
5196,4
5197,5
5198,5
5199,8
5200,6
5201,4
5202,4
5203,4
5204,1
5205,8
5206,7
5207,5
5208,5
5209,1
5210,5
5211,9
5212,1
5213,3
5214,6
5215,3
5216,3
5217,2
5218,2
5219,6
5220,4
5221,9
5222,6
5223,5
5224,5
5225,3
5226,3
5227,8
5228,1
5229,6
5230,5
5231,6
5232,8
5233,1
5234,9
5235,7
5236,6
5237,8
5238,3
5239,7
5240,4
5241,7
5242,0
5243,9
5244,0
5245,0
5246,3
5247,7
5248,9
5249,3
5250,0
5251,2
5252,0
5253,1
5254,0
5255,1
5256,0
5257,4
5258,0
5259,1
5260,0
5261,4
5262,7
5263,9
5264,6
5265,2
5266,6
5267,2
5268,2
5269,9
5270,9
5271,0
5272,1
5273,2
5274,3
5275,4
5276,5
5277,6
5278,7
5279,8
5280,9
5281,0
5282,1
5283,2
5284,3
5285,4
5286,5
5287,6
5288,7
5289,8
5290,9
5291,0
5292,1
5293,2
5294,3
5295,4
5296,5
5297,6
5298,7
5299,8
5300,9
5301,8
5302,0
5303,5
5304,6
5305,6
5306,0
5307,8
5308,0
5309,2
5310,3
5311,7
5312,9
5313,4
5314,7
5315,1
5316,9
5317,1
5318,7
5319,1
5320,4
5321,0
5322,0
5323,4
5324,1
5325,7
5326,5
5327,7
5328,1
5329,3
5330,3
5331,3
5332,1
5333,6
5334,9
5335,7
5336,4
5337,3
5338,0
5339,2
5340,5
5341,2
5342,6
5343,0
5344,8
5345,9
5346,4
5347,3
5348,5
5349,4
5350,8
5351,1
5352,5
5353,9
5354,0
5355,6
5356,4
5357,3
5358,6
5359,3
5360,3
5361,8
5362,1
5363,4
5364,7
5365,5
5366,7
5367,2
5368,2
5369,0
5370,0
5371,1
5372,7
5373,7
5374,9
5375,5
5376,9
5377,8
5378,9
5379,6
5380,8
5381,8
5382,2
5383,3
5384,6
5385,1
5386,2
5387,9
5388,8
5389,9
5390,5
5391,2
5392,6
5393,2
5394,4
5395,8
5396,4
5397,6
5398,5
5399,0
5400,1
5401,5
5402,6
5403,7
5404,8
5405,9
5406,0
5407,1
5408,2
5409,3
5410,6
5411,5
5412,6
5413,7
5414,8
5415,9
5416,0
5417,1
5418,2
5419,3
5420,4
5421,5
5422,6
5423,7
5424,8
5425,9
5426,7
5427,4
5428,2
5429,0
5430,9
5431,0
5432,1
5433,5
5434,8
5435,8
5436,0
5437,2
5438,7
5439,8
5440,4
5441,4
5442,6
5443,1
5444,0
5445,4
5446,5
5447,3
5448,9
5449,4
5450,2
5451,0
5452,5
5453,0
5454,1
5455,3
5456,2
5457,9
5458,8
5459,6
5460,0
5461,1
5462,1
5463,8
5464,0
5465,4
5466,7
5467,7
5468,6
5469,3
5470,6
5471,0
5472,7
5473,3
5474,5
5475,4
5476,2
5477,4
5478,1
5479,8
5480,3
5481,5
5482,6
5483,7
5484,0
5485,6
5486,7
5487,1
5488,2
5489,5
5490,8
5491,1
5492,9
5493,3
5494,8
5495,2
5496,8
5497,7
5498,6
5499,7
5500,1
5501,4
5502,6
5503,2
5504,9
5505,3
5506,0
5507,1
5508,2
5509,3
5510,4
5511,5
5512,6
5513,7
5514,0
5515,1
5516,2
5517,3
5518,4
5519,5
5520,0
5521,1
5522,2
5523,8
5524,9
5525,1
5526,4
5527,0
5528,9
5529,5
5530,0
5531,8
5532,0
5533,7
5534,7
5535,1
5536,1
5537,2
5538,9
5539,3
5540,6
5541,7
5542,2
5543,3
5544,8
5545,1
5546,2
5547,9
5548,8
5549,8
5550,7
5551,1
5552,7
5553,1
5554,1
5555,0
5556,3
5557,4
5558,2
5559,6
5560,4
5561,7
5562,4
5563,2
5564,7
5565,4
5566,9
5567,1
5568,0
5569,6
5570,0
5571,5
5572,5
5573,5
5574,3
5575,5
5576,9
5577,7
5578,4
5579,8
5580,5
5581,9
5582,6
5583,9
5584,3
5585,0
5586,3
5587,8
5588,9
5589,1
5590,8
5591,1
5592,6
5593,0
5594,0
5595,1
5596,2
5597,3
5598,4
5599,5
5600,6
5601,9
5602,8
5603,9
5604,0
5605,1
5606,2
5607,3
5608,4
5609,5
5610,6
5611,7
5612,6
5613,9
5614,6
5615,1
5616,2
5617,3
5618,4
5619,5
5620,6
5621,7
5622,8
5623,9
5624,3
5625,5
5626,3
5627,2
5628,9
5629,3
5630,2
5631,1
5632,4
5633,5
5634,5
5635,2
5636,3
5637,2
5638,1
5639,3
5640,9
5641,7
5642,2
5643,1
5644,2
5645,8
5646,9
5647,1
5648,8
5649,8
5650,7
5651,8
5652,1
5653,0
5654,0
5655,7
5656,7
5657,8
5658,7
5659,5
5660,0
5661,6
5662,1
5663,5
5664,7
5665,4
5666,6
5667,1
5668,2
5669,5
5670,0
5671,7
5672,9
5673,9
5674,0
5675,3
5676,8
5677,4
5678,6
5679,6
5680,1
5681,8
5682,6
5683,5
5684,9
5685,0
5686,0
5687,0
5688,3
5689,7
5690,1
5691,6
5692,4
5693,2
5694,6
5695,6
5696,0
5697,6
5698,5
5699,4
5700,1
5701,3
5702,8
5703,6
5704,3
5705,9
5706,9
5707,5
5708,9
5709,3
5710,7
5711,8
5712,5
5713,6
5714,4
5715,7
5716,6
5717,2
5718,2
5719,0
5720,9
5721,4
5722,0
5723,1
5724,2
5725,3
5726,4
5727,5
5728,6
5729,7
5730,8
5731,9
5732,0
5733,1
5734,2
5735,7
5736,3
5737,6
5738,0
5739,1
5740,2
5741,3
5742,4
5743,5
5744,6
5745,8
5746,7
5747,1
5748,3
5749,2
5750,2
5751,0
5752,7
5753,5
5754,9
5755,9
5756,6
5757,0
5758,9
5759,4
5760,1
5761,3
5762,2
5763,1
5764,2
5765,3
5766,8
5767,3
5768,2
5769,6
5770,5
5771,6
5772,8
5773,2
5774,7
5775,4
5776,8
5777,1
5778,8
5779,0
5780,5
5781,3
5782,9
5783,4
5784,1
5785,9
5786,2
5787,1
5788,9
5789,6
5790,7
5791,9
5792,0
5793,4
5794,6
5795,1
5796,7
5797,3
5798,8
5799,7
5800,2
5801,9
5802,6
5803,5
5804,8
5805,3
5806,9
5807,0
5808,5
5809,7
5810,1
5811,6
5812,1
5813,0
5814,9
5815,3
5816,3
5817,4
5818,4
5819,0
5820,6
5821,2
5822,5
5823,4
5824,2
5825,3
5826,4
5827,6
5828,0
5829,0
5830,2
5831,0
5832,1
5833,4
5834,5
5835,6
5836,8
5837,8
5838,9
5839,0
5840,1
5841,2
5842,3
5843,7
5844,5
5845,6
5846,7
5847,8
5848,0
5849,1
5850,2
5851,3
5852,4
5853,5
5854,6
5855,7
5856,8
5857,9
5858,8
5859,4
5860,1
5861,3
5862,7
5863,5
5864,2
5865,8
5866,0
5867,7
5868,5
5869,9
5870,9
5871,0
5872,9
5873,1
5874,1
5875,5
5876,8
5877,8
5878,6
5879,3
5880,2
5881,1
5882,8
5883,3
5884,2
5885,6
5886,5
5887,6
5888,9
5889,0
5890,1
5891,0
5892,6
5893,3
5894,1
5895,9
5896,2
5897,1
5898,9
5899,6
5900,0
5901,4
5902,6
5903,1
5904,7
5905,3
5906,8
5907,7
5908,2
5909,9
5910,6
5911,5
5912,8
5913,3
5914,3
5915,9
5916,1
5917,6
5918,1
5919,0
5920,9
5921,6
5922,2
5923,5
5924,4
5925,2
5926,3
5927,9
5928,4
5929,6
5930,0
5931,0
5932,2
5933,0
5934,1
5935,2
5936,3
5937,9
5938,5
5939,6
5940,7
5941,8
5942,9
5943,0
5944,1
5945,2
5946,3
5947,4
5948,5
5949,6
5950,7
5951,8
5952,9
5953,0
5954,1
5955,2
5956,8
5957,4
5958,5
5959,6
5960,7
5961,8
5962,9
5963,8
5964,6
5965,5
5966,0
5967,6
5968,8
5969,9
5970,4
5971,1
5972,9
5973,5
5974,8
5975,0
5976,4
5977,8
5978,9
5979,1
5980,4
5981,0
5982,5
5983,3
5984,2
5985,1
5986,5
5987,4
5988,0
5989,7
5990,6
5991,0
5992,1
5993,7
5994,0
5995,6
5996,8
5997,9
5998,5
5999,1
6000,7
6001,9
6002,8
6003,6
6004,0
6005,8
6006,1
6007,7
6008,7
6009,1
6010,3
6011,2
6012,3
6013,1
6014,4
6015,2
6016,0
6017,0
6018,7
6019,8
6020,4
6021,4
6022,4
6023,9
6024,3
6025,3
6026,4
6027,7
6028,2
6029,5
6030,6
6031,3
6032,6
6033,9
6034,6
6035,3
6036,0
6037,2
6038,4
6039,6
6040,9
6041,0
6042,2
6043,8
6044,5
6045,1
6046,3
6047,3
6048,9
6049,7
6050,8
6051,7
6052,2
6053,2
6054,5
6055,7
6056,9
6057,8
6058,2
6059,1
6060,3
6061,1
6062,3
6063,0
6064,1
6065,2
6066,8
6067,4
6068,5
6069,6
6070,7
6071,8
6072,8
6073,0
6074,1
6075,2
6076,3
6077,4
6078,5
6079,6
6080,7
6081,8
6082,9
6083,0
6084,1
6085,2
6086,3
6087,4
6088,5
6089,6
6090,7
6091,8
6092,9
6093,1
6094,2
6095,6
6096,5
6097,3
6098,0
6099,7
6100,0
6101,4
6102,1
6103,4
6104,3
6105,6
6106,7
6107,2
6108,3
6109,1
6110,2
6111,1
6112,2
6113,9
6114,6
6115,0
6116,1
6117,3
6118,0
6119,2
6120,7
6121,5
6122,7
6123,6
6124,2
6125,9
6126,1
6127,9
6128,0
6129,6
6130,0
6131,6
6132,0
6133,2
6134,0
6135,6
6136,1
6137,5
6138,8
6139,4
6140,3
6141,0
6142,1
6143,5
6144,4
6145,4
6146,8
6147,5
6148,7
6149,5
6150,7
6151,8
6152,3
6153,4
6154,8
6155,8
6156,5
6157,2
6158,9
6159,7
6160,1
6161,3
6162,8
6163,1
6164,0
6165,7
6166,5
6167,3
6168,6
6169,9
6170,4
6171,7
6172,7
6173,5
6174,0
6175,3
6176,4
6177,4
6178,3
6179,8
6180,6
6181,2
6182,0
6183,1
6184,2
6185,3
6186,4
6187,5
6188,6
6189,7
6190,8
6191,9
6192,0
6193,1
6194,2
6195,3
6196,4
6197,5
6198,6
6199,7
6200,8
6201,9
6202,0
6203,1
6204,2
6205,3
6206,4
6207,5
6208,6
6209,7
6210,8
6211,9
6212,0
6213,8
6214,3
6215,9
6216,5
6217,5
6218,2
6219,6
6220,8
6221,4
6222,9
6223,1
6224,7
6225,1
6226,2
6227,3
6228,5
6229,9
6230,6
6231,9
6232,1
6233,1
6234,1
6235,2
6236,9
6237,5
6238,6
6239,8
6240,1
6241,2
6242,0
6243,7
6244,7
6245,5
6246,8
6247,2
6248,9
6249,8
6250,9
6251,0
6252,4
6253,6
6254,7
6255,1
6256,3
6257,4
6258,5
6259,6
6260,0
6261,3
6262,6
6263,8
6264,7
6265,0
6266,4
6267,2
6268,7
6269,4
6270,7
6271,5
6272,4
6273,3
6274,4
6275,2
6276,8
6277,1
6278,5
6279,1
6280,2
6281,0
6282,2
6283,5
6284,6
6285,4
6286,3
6287,0
6288,0
6289,0
6290,3
6291,3
6292,5
6293,7
6294,0
6295,6
6296,4
6297,8
6298,8
6299,6
6300,3
6301,4
6302,6
6303,9
6304,9
6305,8
6306,2
6307,7
6308,7
6309,1
6310,0
6311,1
6312,2
6313,3
6314,4
6315,5
6316,6
6317,7
6318,8
6319,9
6320,0
6321,1
6322,2
6323,3
6324,4
6325,5
6326,6
6327,7
6328,8
6329,0
6330,1
6331,2
6332,3
6333,4
6334,5
6335,6
6336,7
6337,8
6338,2
6339,1
6340,7
6341,2
6342,5
6343,0
6344,8
6345,0
6346,2
6347,7
6348,6
6349,8
6350,3
6351,6
6352,0
6353,2
6354,7
6355,6
6356,6
6357,1
6358,2
6359,8
6360,8
6361,7
6362,7
6363,4
6364,7
6365,7
6366,3
6367,7
6368,4
6369,5
6370,4
6371,3
6372,3
6373,8
6374,4
6375,1
6376,1
6377,9
6378,7
6379,4
6380,3
6381,7
6382,3
6383,3
6384,0
6385,2
6386,5
6387,5
6388,6
6389,6
6390,3
6391,5
6392,6
6393,5
6394,9
6395,9
6396,8
6397,4
6398,1
6399,0
6400,6
6401,0
6402,9
6403,6
6404,8
6405,8
6406,5
6407,6
6408,1
6409,1
6410,9
6411,8
6412,9
6413,2
6414,3
6415,5
6416,5
6417,9
6418,4
6419,2
6420,1
6421,9
6422,3
6423,9
6424,2
6425,0
6426,6
6427,6
6428,4
6429,0
6430,0
6431,1
6432,2
6433,3
6434,4
6435,7
6436,8
6437,9
6438,0
6439,1
6440,2
6441,3
6442,7
6443,8
6444,9
6445,0
6446,1
6447,2
6448,3
6449,4
6450,7
6451,8
6452,9
6453,7
6454,3
6455,0
6456,3
6457,1
6458,8
6459,7
6460,6
6461,4
6462,0
6463,2
6464,6
6465,8
6466,3
6467,2
6468,8
6469,1
6470,2
6471,0
6472,7
6473,1
6474,0
6475,4
6476,4
6477,5
6478,8
6479,0
6480,6
6481,2
6482,3
6483,1
6484,5
6485,1
6486,8
6487,5
6488,9
6489,4
6490,0
6491,7
6492,5
6493,8
6494,8
6495,3
6496,5
6497,9
6498,2
6499,6
6500,2
6501,5
6502,3
6503,1
6504,7
6505,3
6506,0
6507,1
6508,9
6509,9
6510,6
6511,0
6512,3
6513,9
6514,2
6515,8
6516,1
6517,4
6518,0
6519,5
6520,2
6521,9
6522,2
6523,5
6524,8
6525,9
6526,5
6527,0
6528,1
6529,2
6530,9
6531,5
6532,6
6533,0
6534,1
6535,2
6536,3
6537,4
6538,5
6539,6
6540,7
6541,1
6542,2
6543,3
6544,4
6545,5
6546,1
6547,0
6548,4
6549,5
6550,6
6551,6
6552,3
6553,4
6554,4
6555,2
6556,8
6557,1
6558,0
6559,6
6560,4
6561,9
6562,7
6563,2
6564,3
6565,3
6566,9
6567,2
6568,0
6569,9
6570,3
6571,3
6572,9
6573,1
6574,5
6575,2
6576,3
6577,7
6578,7
6579,8
6580,4
6581,0
6582,2
6583,4
6584,0
6585,2
6586,4
6587,7
6588,8
6589,0
6590,7
6591,0
6592,6
6593,9
6594,3
6595,2
6596,8
6597,6
6598,7
6599,6
6600,1
6601,5
6602,1
6603,0
6604,0
6605,1
6606,6
6607,7
6608,2
6609,9
6610,7
6611,9
6612,5
6613,8
6614,6
6615,2
6616,6
6617,2
6618,8
6619,1
6620,7
6621,5
6622,0
6623,1
6624,1
6625,3
6626,4
6627,4
6628,9
6629,1
6630,8
6631,6
6632,8
6633,7
6634,0
6635,1
6636,2
6637,3
6638,4
6639,5
6640,6
6641,7
6642,8
6643,9
6644,0
6645,1
6646,2
6647,3
6648,4
6649,7
6650,8
6651,9
6652,5
6653,1
6654,7
6655,8
6656,9
6657,9
6658,8
6659,9
6660,8
6661,4
6662,1
6663,7
6664,7
6665,3
6666,3
6667,7
6668,6
6669,6
6670,6
6671,1
6672,9
6673,0
6674,1
6675,7
6676,6
6677,3
6678,2
6679,1
6680,7
6681,1
6682,3
6683,9
6684,1
6685,7
6686,6
6687,8
6688,4
6689,1
6690,4
6691,3
6692,5
6693,9
6694,6
6695,1
6696,4
6697,4
6698,7
6699,2
6700,4
6701,4
6702,0
6703,1
6704,2
6705,3
6706,4
6707,5
6708,6
6709,7
6710,8
6711,9
6712,0
6713,1
6714,2
6715,3
6716,4
6717,5
6718,6
6719,9
6720,0
6721,1
6722,4
6723,3
6724,4
6725,7
6726,8
6727,1
6728,3
6729,5
6730,1
6731,7
6732,7
6733,2
6734,1
6735,4
6736,8
6737,3
6738,4
6739,4
6740,2
6741,9
6742,7
6743,4
6744,1
6745,8
6746,3
6747,5
6748,9
6749,1
6750,6
6751,0
6752,1
6753,0
6754,0
6755,2
6756,8
6757,7
6758,1
6759,1
6760,4
6761,0
6762,9
6763,7
6764,3
6765,6
6766,8
6767,0
6768,3
6769,7
6770,4
6771,0
6772,6
6773,9
6774,2
6775,6
6776,5
6777,8
6778,6
6779,9
6780,0
6781,9
6782,0
6783,6
6784,6
6785,9
6786,2
6787,0
6788,9
6789,5
6790,1
6791,3
6792,7
6793,6
6794,9
6795,3
6796,0
6797,2
6798,2
6799,0
6800,1
6801,2
6802,3
6803,4
6804,5
6805,6
6806,7
6807,8
6808,9
6809,0
6810,1
6811,2
6812,3
6813,4
6814,5
6815,6
6816,7
6817,8
6818,9
6819,0
6820,1
6821,2
6822,3
6823,4
6824,5
6825,6
6826,7
6827,8
6828,9
6829,2
6830,1
6831,7
6832,2
6833,5
6834,0
6835,8
6836,0
6837,2
6838,7
6839,8
6840,3
6841,3
6842,0
6843,6
6844,0
6845,2
6846,7
6847,6
6848,6
6849,1
6850,2
6851,8
6852,8
6853,7
6854,7
6855,4
6856,7
6857,7
6858,3
6859,7
6860,4
6861,5
6862,4
6863,3
6864,3
6865,8
6866,4
6867,5
6868,4
6869,1
6870,1
6871,9
6872,7
6873,4
6874,3
6875,7
6876,3
6877,3
6878,0
6879,2
6880,5
6881,5
6882,6
6883,3
6884,1
6885,5
6886,2
6887,5
6888,9
6889,9
6890,8
6891,4
6892,1
6893,0
6894,6
6895,0
6896,9
6897,6
6898,8
6899,8
6900,5
6901,6
6902,1
6903,1
6904,9
6905,8
6906,9
6907,6
6908,3
6909,5
6910,5
6911,9
6912,4
6913,2
6914,1
6915,9
6916,4
6917,9
6918,1
6919,3
6920,9
6921,2
6922,0
6923,6
6924,0
6925,4
6926,0
6927,4
6928,0
6929,1
6930,2
6931,3
6932,4
6933,5
6934,6
6935,7
6936,8
6937,9
6938,0
6939,1
6940,2
6941,3
6942,4
6943,5
6944,6
6945,7
6946,8
6947,9
6948,0
6949,1
6950,2
6951,3
6952,4
6953,5
6954,6
6955,7
6956,8
6957,9
6958,3
6959,8
6960,0
6961,7
6962,1
6963,0
6964,7
6965,5
6966,5
6967,6
6968,9
6969,0
6970,1
6971,0
6972,0
6973,8
6974,3
6975,4
6976,3
6977,1
6978,5
6979,0
6980,0
6981,9
6982,5
6983,3
6984,4
6985,9
6986,3
6987,7
6988,6
6989,9
6990,2
6991,4
6992,5
6993,7
6994,2
6995,6
6996,4
6997,9
6998,4
6999,9
7000,4
7001,1
7002,2
7003,2
7004,5
7005,8
7006,1
7007,3
7008,2
7009,9
7010,4
7011,3
7012,8
7013,2
7014,2
7015,1
7016,2
7017,8
7018,6
7019,5
7020,1
7021,6
7022,7
7023,2
7024,1
7025,3
7026,9
7027,3
7028,8
7029,7
7030,5
7031,7
7032,0
7033,7
7034,4
7035,8
7036,8
7037,5
7038,0
7039,6
7040,6
7041,3
7042,7
7043,6
7044,9
7045,9
7046,4
7047,8
7048,4
7049,1
7050,0
7051,6
7052,6
7053,0
7054,1
7055,2
7056,3
7057,4
7058,5
7059,6
7060,7
7061,8
7062,9
7063,0
7064,1
7065,2
7066,3
7067,4
7068,5
7069,6
7070,7
7071,8
7072,9
7073,0
7074,1
7075,2
7076,3
7077,4
7078,5
7079,6
7080,7
7081,8
7082,9
7083,7
7084,4
7085,0
7086,4
7087,0
7088,1
7089,7
7090,9
7091,5
7092,1
7093,4
7094,2
7095,8
7096,9
7097,4
7098,3
7099,7
7100,8
7101,2
7102,4
7103,4
7104,3
7105,3
7106,6
7107,9
7108,9
7109,5
7110,8
7111,6
7112,7
7113,0
7114,6
7115,8
7116,2
7117,6
7118,3
7119,9
7120,3
7121,2
7122,8
7123,6
7124,1
7125,7
7126,4
7127,8
7128,8
7129,9
7130,0
7131,8
7132,3
7133,9
7134,0
7135,5
7136,2
7137,9
7138,4
7139,1
7140,0
7141,3
7142,7
7143,5
7144,8
7145,7
7146,7
7147,8
7148,2
7149,9
7150,7
7151,1
7152,2
7153,6
7154,4
7155,2
7156,5
7157,2
7158,3
7159,6
7160,6
7161,5
7162,0
7163,0
7164,2
7165,8
7166,1
7167,6
7168,1
7169,0
7170,4
7171,3
7172,1
7173,6
7174,1
7175,9
7176,0
7177,1
7178,4
7179,5
7180,6
7181,7
7182,8
7183,9
7184,1
7185,2
7186,3
7187,4
7188,5
7189,6
7190,7
7191,0
7192,1
7193,2
7194,3
7195,4
7196,5
7197,6
7198,7
7199,8
7200,9
7201,8
7202,4
7203,0
7204,0
7205,7
7206,2
7207,4
7208,3
7209,8
7210,6
7211,6
7212,3
7213,2
7214,6
7215,3
7216,3
7217,7
7218,1
7219,4
7220,7
7221,8
7222,0
7223,3
7224,1
7225,9
7226,0
7227,1
7228,9
7229,1
7230,2
7231,7
7232,0
7233,1
7234,7
7235,8
7236,2
7237,9
7238,2
7239,7
7240,6
7241,5
7242,5
7243,9
7244,9
7245,8
7246,2
7247,9
7248,1
7249,3
7250,7
7251,3
7252,4
7253,3
7254,1
7255,9
7256,0
7257,9
7258,3
7259,6
7260,8
7261,7
7262,0
7263,1
7264,0
7265,5
7266,8
7267,2
7268,7
7269,7
7270,0
7271,1
7272,2
7273,3
7274,4
7275,5
7276,6
7277,7
7278,8
7279,9
7280,0
7281,1
7282,2
7283,3
7284,4
7285,5
7286,6
7287,7
7288,8
7289,9
7290,0
7291,1
7292,2
7293,3
7294,4
7295,5
7296,6
7297,7
7298,8
7299,9
7300,1
7301,7
7302,4
7303,8
7304,1
7305,5
7306,6
7307,5
7308,7
7309,2
7310,8
7311,6
7312,3
7313,3
7314,8
7315,6
7316,5
7317,4
7318,0
7319,9
7320,1
7321,7
7322,2
7323,9
7324,1
7325,5
7326,1
7327,3
7328,2
7329,2
7330,3
7331,0
7332,6
7333,4
7334,3
7335,7
7336,6
7337,9
7338,0
7339,4
7340,8
7341,1
7342,4
7343,0
7344,6
7345,1
7346,2
7347,6
7348,9
7349,2
7350,2
7351,3
7352,5
7353,5
7354,1
7355,0
7356,7
7357,7
7358,9
7359,6
7360,2
7361,9
7362,4
7363,7
7364,0
7365,2
7366,3
7367,4
7368,0
7369,0
7370,8
7371,8
7372,8
7373,5
7374,1
7375,3
7376,7
7377,4
7378,9
7379,8
7380,8
7381,9
7382,0
7383,9
7384,8
7385,9
7386,0
7387,2
7388,6
7389,5
7390,6
7391,7
7392,4
7393,7
7394,5
7395,4
7396,1
7397,3
7398,5
7399,3
7400,1
7401,2
7402,3
7403,4
7404,5
7405,6
7406,1
7407,2
7408,3
7409,6
7410,6
7411,0
7412,1
7413,2
7414,4
7415,5
7416,6
7417,7
7418,8
7419,1
7420,7
7421,2
7422,4
7423,1
7424,4
7425,1
7426,4
7427,9
7428,6
7429,8
7430,4
7431,5
7432,3
7433,1
7434,8
7435,8
7436,3
7437,3
7438,5
7439,6
7440,7
7441,0
7442,6
7443,1
7444,6
7445,8
7446,7
7447,0
7448,1
7449,5
7450,0
7451,8
7452,5
7453,0
7454,1
7455,5
7456,8
7457,4
7458,2
7459,3
7460,9
7461,7
7462,6
7463,9
7464,1
7465,9
7466,0
7467,6
7468,7
7469,1
7470,2
7471,3
7472,9
7473,2
7474,8
7475,5
7476,5
7477,3
7478,7
7479,5
7480,3
7481,1
7482,8
7483,2
7484,2
7485,3
7486,0
7487,2
7488,9
7489,4
7490,9
7491,7
7492,0
7493,2
7494,7
7495,4
7496,9
7497,9
7498,2
7499,2
7500,9
7501,8
7502,3
7503,8
7504,0
7505,7
7506,0
7507,0
7508,1
7509,2
7510,3
7511,4
7512,5
7513,6
7514,7
7515,8
7516,9
7517,0
7518,1
7519,2
7520,3
7521,4
7522,5
7523,6
7524,7
7525,8
7526,9
7527,0
7528,1
7529,2
7530,3
7531,4
7532,5
7533,6
7534,7
7535,8
7536,9
7537,0
7538,0
7539,7
7540,2
7541,6
7542,5
7543,5
7544,3
7545,7
7546,8
7547,6
7548,6
7549,6
7550,6
7551,4
7552,3
7553,8
7554,8
7555,3
7556,0
7557,1
7558,9
7559,0
7560,5
7561,4
7562,1
7563,9
7564,1
7565,2
7566,7
7567,0
7568,1
7569,3
7570,8
7571,2
7572,9
7573,2
7574,7
7575,1
7576,2
7577,6
7578,5
7579,5
7580,9
7581,9
7582,1
7583,1
7584,5
7585,7
7586,6
7587,8
7588,2
7589,9
7590,4
7591,3
7592,1
7593,9
7594,0
7595,9
7596,3
7597,6
7598,8
7599,7
7600,0
7601,1
7602,0
7603,5
7604,8
7605,2
7606,7
7607,7
7608,0
7609,1
7610,2
7611,3
7612,4
7613,5
7614,6
7615,7
7616,8
7617,9
7618,0
7619,1
7620,3
7621,3
7622,4
7623,5
7624,8
7625,9
7626,0
7627,1
7628,2
7629,3
7630,4
7631,5
7632,6
7633,7
7634,8
7635,9
7636,2
7637,1
7638,3
7639,1
7640,3
7641,9
7642,9
7643,8
7644,5
7645,3
7646,7
7647,0
7648,7
7649,7
7650,5
7651,7
7652,9
7653,9
7654,4
7655,7
7656,0
7657,3
7658,4
7659,1
7660,5
7661,8
7662,1
7663,4
7664,8
7665,4
7666,1
7667,8
7668,6
7669,6
7670,4
7671,6
7672,0
7673,5
7674,5
7675,3
7676,3
7677,5
7678,7
7679,2
7680,5
7681,9
7682,6
7683,9
7684,2
7685,6
7686,2
7687,1
7688,2
7689,0
7690,8
7691,3
7692,8
7693,3
7694,0
7695,8
7696,7
7697,4
7698,9
7699,5
7700,0
7701,9
7702,7
7703,0
7704,0
7705,4
7706,6
7707,0
7708,9
7709,1
7710,6
7711,2
7712,7
7713,6
7714,8
7715,3
7716,5
7717,2
7718,1
7719,8
7720,3
7721,8
7722,6
7723,1
7724,0
7725,2
7726,1
7727,4
7728,0
7729,1
7730,2
7731,3
7732,4
7733,5
7734,6
7735,7
7736,8
7737,8
7738,0
7739,1
7740,2
7741,3
7742,4
7743,5
7744,6
7745,7
7746,8
7747,9
7748,0
7749,1
7750,2
7751,3
7752,4
7753,5
7754,6
7755,7
7756,8
7757,9
7758,7
7759,6
7760,4
7761,7
7762,6
7763,2
7764,3
7765,4
7766,8
7767,7
7768,8
7769,6
7770,9
7771,8
7772,3
7773,2
7774,2
7775,8
7776,4
7777,8
7778,5
7779,6
7780,5
7781,0
7782,2
7783,0
7784,1
7785,1
7786,2
7787,9
7788,6
7789,8
7790,2
7791,1
7792,0
7793,6
7794,5
7795,2
7796,9
7797,7
7798,2
7799,3
7800,9
7801,2
7802,7
7803,1
7804,8
7805,3
7806,8
7807,1
7808,9
7809,5
7810,5
7811,0
7812,1
7813,1
7814,9
7815,8
7816,2
7817,6
7818,0
7819,4
7820,5
7821,0
7822,3
7823,1
7824,2
7825,6
7826,7
7827,5
7828,9
7829,9
7830,3
7831,0
7832,3
7833,1
7834,4
7835,4
7836,0
7837,4
7838,9
7839,0
7840,1
7841,2
7842,3
7843,5
7844,6
7845,7
7846,8
7847,0
7848,1
7849,2
7850,9
7851,5
7852,6
7853,7
7854,8
7855,9
7856,0
7857,1
7858,4
7859,3
7860,5
7861,6
7862,7
7863,8
7864,9
7865,9
7866,7
7867,0
7868,9
7869,0
7870,1
7871,5
7872,8
7873,8
7874,0
7875,9
7876,3
7877,2
7878,7
7879,8
7880,4
7881,6
7882,1
7883,0
7884,4
7885,9
7886,4
7887,4
7888,0
7889,5
7890,0
7891,1
7892,6
7893,9
7894,3
7895,2
7896,9
7897,1
7898,6
7899,0
7900,1
7901,1
7902,8
7903,7
7904,7
7905,6
7906,3
7907,6
7908,0
7909,7
7910,2
7911,4
7912,1
7913,7
7914,0
7915,6
7916,7
7917,1
7918,2
7919,5
7920,8
7921,1
7922,9
7923,2
7924,8
7925,7
7926,6
7927,8
7928,7
7929,1
7930,6
7931,2
7932,9
7933,3
7934,0
7935,1
7936,2
7937,3
7938,4
7939,5
7940,6
7941,7
7942,8
7943,9
7944,0
7945,1
7946,6
7947,3
7948,4
7949,5
7950,6
7951,7
7952,8
7953,9
7954,0
7955,1
7956,2
7957,3
7958,4
7959,5
7960,6
7961,7
7962,8
7963,9
7964,8
7965,9
7966,5
7967,7
7968,0
7969,3
7970,1
7971,6
7972,8
7973,4
7974,1
7975,5
7976,6
7977,4
7978,2
7979,7
7980,8
7981,1
7982,3
7983,4
7984,3
7985,4
7986,7
7987,2
7988,0
7989,5
7990,0
7991,1
7992,9
7993,2
7994,3
7995,2
7996,3
7997,5
7998,5
7999,7
8000,8
8001,4
8002,9
8003,9
8004,7
8005,1
8006,1
8007,9
8008,0
8009,7
8010,8
8011,3
8012,4
8013,8
8014,6
8015,3
8016,8
8017,0
8018,9
8019,6
8020,2
8021,1
8022,0
8023,1
8024,0
8025,6
8026,2
8027,3
8028,8
8029,9
8030,0
8031,7
8032,2
8033,3
8034,4
8035,5
8036,5
8037,2
8038,8
8039,5
8040,4
8041,6
8042,6
8043,6
8044,7
8045,9
8046,1
8047,8
8048,2
8049,1
8050,5
8051,3
8052,4
8053,7
8054,9
8055,4
8056,0
8057,0
8058,0
8059,1
8060,2
8061,3
8062,4
8063,8
8064,6
8065,7
8066,8
8067,9
8068,0
8069,1
8070,2
8071,3
8072,4
8073,5
8074,6
8075,7
8076,8
8077,9
8078,0
8079,1
8080,2
8081,3
8082,4
8083,5
8084,6
8085,9
8086,0
8087,1
8088,3
8089,1
8090,5
8091,1
8092,2
8093,4
8094,9
8095,8
8096,4
8097,6
8098,8
8099,0
8100,1
8101,1
8102,9
8103,2
8104,6
8105,6
8106,8
8107,7
8108,4
8109,2
8110,9
8111,7
8112,0
8113,2
8114,1
8115,0
8116,3
8117,6
8118,0
8119,1
8120,2
8121,3
8122,4
8123,5
8124,6
8125,7
8126,8
8127,9
8128,0
8129,1
8130,2
8131,3
8132,4
8133,5
8134,6
8135,7
8136,8
8137,9
8138,0
8139,1
8140,2
8141,3
8142,4
8143,5
8144,6
8145,7
8146,8
8147,9
8148,8
8149,6
8150,5
8151,9
8152,7
8153,0
8154,2
8155,3
8156,4
8157,3
8158,8
8159,5
8160,1
8161,5
8162,2
8163,3
8164,0
8165,1
8166,2
8167,1
8168,3
8169,2
8170,6
8171,5
8172,3
8173,0
8174,7
8175,2
8176,7
8177,4
8178,6
8179,4
8180,0
8181,5
8182,8
8183,9
8184,8
8185,9
8186,5
8187,3
8188,1
8189,7
8190,4
8191,7
8192,6
8193,5
8194,4
8195,0
8196,0
8197,6
8198,6
8199,2
8200,0
8201,6
8202,3
8203,7
8204,7
8205,4
8206,4
8207,3
8208,9
8209,2
8210,8
8211,9
8212,6
8213,0
8214,9
8215,5
8216,3
8217,8
8218,8
8219,7
8220,1
8221,4
8222,0
8223,4
8224,8
8225,5
8226,2
8227,3
8228,9
8229,0
8230,1
8231,9
8232,1
8233,5
8234,1
8235,7
8236,4
8237,8
8238,6
8239,2
8240,1
8241,6
8242,8
8243,8
8244,0
8245,1
8246,2
8247,3
8248,4
8249,7
8250,8
8251,9
8252,0
8253,1
8254,2
8255,3
8256,4
8257,6
8258,7
8259,8
8260,9
8261,0
8262,1
8263,2
8264,3
8265,4
8266,7
8267,8
8268,9
8269,1
8270,4
8271,5
8272,3
8273,3
8274,0
8275,9
8276,5
8277,4
8278,8
8279,0
8280,4
8281,4
8282,6
8283,7
8284,0
8285,7
8286,7
8287,1
8288,6
8289,9
8290,1
8291,3
8292,6
8293,2
8294,3
8295,8
8296,2
8297,8
8298,8
8299,9
8300,5
8301,8
8302,8
8303,7
8304,1
8305,7
8306,1
8307,1
8308,0
8309,3
8310,4
8311,2
8312,6
8313,4
8314,7
8315,4
8316,2
8317,7
8318,4
8319,2
8320,9
8321,7
8322,7
8323,9
8324,2
8325,1
8326,0
8327,6
8328,5
8329,3
8330,4
8331,8
8332,5
8333,7
8334,6
8335,9
8336,0
8337,6
8338,3
8339,0
8340,4
8341,1
8342,6
8343,0
8344,0
8345,1
8346,2
8347,3
8348,4
8349,6
8350,6
8351,7
8352,0
8353,1
8354,2
8355,3
8356,4
8357,7
8358,8
8359,9
8360,0
8361,1
8362,2
8363,3
8364,4
8365,7
8366,2
8367,5
8368,1
8369,6
8370,4
8371,3
8372,9
8373,9
8374,0
8375,9
8376,7
8377,1
8378,6
8379,4
8380,3
8381,6
8382,2
8383,0
8384,9
8385,8
8386,6
8387,5
8388,7
8389,0
8390,0
8391,1
8392,7
8393,4
8394,3
8395,2
8396,4
8397,1
8398,3
8399,7
8400,6
8401,4
8402,7
8403,7
8404,7
8405,9
8406,8
8407,9
8408,3
8409,5
8410,2
8411,8
8412,3
8413,5
8414,8
8415,0
8416,5
8417,4
8418,7
8419,1
8420,3
8421,1
8422,7
8423,9
8424,6
8425,2
8426,0
8427,7
8428,1
8429,7
8430,3
8431,3
8432,9
8433,1
8434,6
8435,4
8436,3
8437,9
8438,8
8439,2
8440,1
8441,8
8442,6
8443,4
8444,1
8445,5
8446,5
8447,6
8448,5
8449,0
8450,1
8451,2
8452,3
8453,4
8454,8
8455,6
8456,7
8457,8
8458,9
8459,0
8460,1
8461,2
8462,3
8463,4
8464,5
8465,6
8466,7
8467,8
8468,9
8469,0
8470,1
8471,2
8472,3
8473,4
8474,5
8475,6
8476,7
8477,5
8478,9
8479,6
8480,9
8481,7
8482,0
8483,2
8484,3
8485,4
8486,3
8487,8
8488,5
8489,1
8490,3
8491,0
8492,1
8493,2
8494,1
8495,3
8496,2
8497,0
8498,7
8499,2
8500,6
8501,4
8502,0
8503,5
8504,9
8505,9
8506,8
8507,9
8508,5
8509,3
8510,1
8511,7
8512,4
8513,7
8514,0
8515,0
8516,6
8517,6
8518,6
8519,3
8520,7
8521,9
8522,2
8523,8
8524,9
8525,8
8526,7
8527,1
8528,8
8529,0
8530,4
8531,8
8532,5
8533,2
8534,3
8535,9
8536,0
8537,1
8538,9
8539,1
8540,5
8541,1
8542,7
8543,6
8544,1
8545,2
8546,1
8547,6
8548,8
8549,0
8550,1
8551,2
8552,3
8553,4
8554,5
8555,6
8556,7
8557,8
8558,9
8559,0
8560,1
8561,2
8562,3
8563,4
8564,5
8565,6
8566,7
8567,8
8568,0
8569,1
8570,2
8571,3
8572,5
8573,6
8574,7
8575,8
8576,1
8577,0
8578,4
8579,5
8580,6
8581,6
8582,3
8583,4
8584,4
8585,2
8586,8
8587,1
8588,0
8589,6
8590,4
8591,9
8592,7
8593,2
8594,9
8595,2
8596,0
8597,9
8598,3
8599,3
8600,9
8601,1
8602,5
8603,2
8604,3
8605,1
8606,6
8607,7
8608,3
8609,7
8610,8
8611,4
8612,0
8613,2
8614,4
8615,0
8616,2
8617,4
8618,7
8619,8
8620,0
8621,7
8622,0
8623,6
8624,9
8625,3
8626,2
8627,4
8628,8
8629,6
8630,0
8631,5
8632,7
8633,5
8634,1
8635,0
8636,8
8637,1
8638,6
8639,7
8640,2
8641,9
8642,7
8643,9
8644,5
8645,6
8646,5
8647,2
8648,6
8649,2
8650,8
8651,1
8652,7
8653,5
8654,5
8655,7
8656,3
8657,5
8658,0
8659,1
8660,1
8661,3
8662,8
8663,4
8664,9
8665,4
8666,5
8667,1
8668,8
8669,6
8670,8
8671,9
8672,0
8673,1
8674,2
8675,3
8676,4
8677,5
8678,6
8679,7
8680,8
8681,9
8682,0
8683,1
8684,2
8685,3
8686,4
8687,5
8688,6
8689,7
8690,8
8691,9
8692,0
8693,1
8694,2
8695,3
8696,4
8697,5
8698,6
8699,7
8700,8
8701,9
8702,3
8703,5
8704,3
8705,2
8706,9
8707,3
8708,2
8709,1
8710,4
8711,5
8712,5
8713,2
8714,3
8715,2
8716,1
8717,3
8718,9
8719,7
8720,2
8721,1
8722,2
8723,8
8724,9
8725,1
8726,8
8727,8
8728,7
8729,8
8730,1
8731,0
8732,0
8733,6
8734,7
8735,7
8736,8
8737,7
8738,5
8739,0
8740,6
8741,1
8742,5
8743,7
8744,4
8745,6
8746,1
8747,2
8748,5
8749,0
8750,7
8751,9
8752,9
8753,0
8754,3
8755,4
8756,4
8757,8
8758,4
8759,1
8760,8
8761,6
8762,5
8763,9
8764,0
8765,0
8766,0
8767,3
8768,7
8769,1
8770,6
8771,4
8772,6
8773,0
8774,4
8775,5
8776,4
8777,1
8778,3
8779,8
8780,6
8781,3
8782,9
8783,9
8784,5
8785,9
8786,3
8787,7
8788,8
8789,5
8790,6
8791,4
8792,7
8793,6
8794,2
8795,2
8796,0
8797,9
8798,4
8799,0
8800,1
8801,2
8802,3
8803,4
8804,5
8805,6
8806,7
8807,8
8808,9
8809,0
8810,1
8811,2
8812,3
8813,4
8814,5
8815,6
8816,7
8817,8
8818,9
8819,0
8820,1
8821,2
8822,3
8823,4
8824,5
8825,6
8826,7
8827,8
8828,9
8829,6
8830,4
8831,2
8832,6
8833,4
8834,7
8835,5
8836,5
8837,4
8838,7
8839,2
8840,9
8841,3
8842,9
8843,3
8844,8
8845,2
8846,0
8847,9
8848,5
8849,6
8850,0
8851,1
8852,0
8853,6
8854,5
8855,3
8856,5
8857,3
8858,8
8859,0
8860,0
8861,3
8862,4
8863,1
8864,5
8865,3
8866,0
8867,8
8868,3
8869,0
8870,6
8871,2
8872,7
8873,8
8874,1
8875,7
8876,1
8877,3
8878,8
8879,5
8880,4
8881,2
8882,0
8883,9
8884,7
8885,6
8886,7
8887,4
8888,1
8889,6
8890,2
8891,6
8892,7
8893,1
8894,9
8895,8
8896,0
8897,6
8898,9
8899,4
8900,9
8901,9
8902,6
8903,2
8904,3
8905,7
8906,1
8907,9
8908,2
8909,2
8910,5
8911,3
8912,7
8913,8
8914,0
8915,1
8916,2
8917,3
8918,4
8919,7
8920,8
8921,9
8922,0
8923,1
8924,2
8925,3
8926,4
8927,7
8928,8
8929,9
8930,0
8931,1
8932,7
8933,8
8934,9
8935,8
8936,9
8937,2
8938,6
8939,1
8940,3
8941,5
8942,4
8943,8
8944,2
8945,6
8946,4
8947,3
8948,4
8949,5
8950,9
8951,2
8952,0
8953,3
8954,9
8955,4
8956,9
8957,7
8958,3
8959,8
8960,7
8961,4
8962,4
8963,9
8964,8
8965,5
8966,8
8967,2
8968,6
8969,6
8970,2
8971,3
8972,1
8973,3
8974,2
8975,7
8976,5
8977,1
8978,9
8979,0
8980,1
8981,1
8982,3
8983,5
8984,0
8985,7
8986,8
8987,1
8988,5
8989,1
8990,4
8991,6
8992,0
8993,0
8994,4
8995,9
8996,1
8997,6
8998,6
8999,9
9000,0
9001,7
9002,6
9003,1
9004,1
9005,0
9006,1
9007,2
9008,3
9009,6
9010,2
9011,2
9012,3
9013,4
9014,5
9015,6
9016,2
9017,5
9018,1
9019,2
9020,2
9021,8
9022,6
9023,3
9024,9
9025,2
9026,1
9027,9
9028,3
9029,9
9030,6
9031,1
9032,2
9033,2
9034,4
9035,4
9036,5
9037,2
9038,0
9039,0
9040,1
9041,6
9042,6
9043,8
9044,2
9045,7
9046,2
9047,2
9048,4
9049,2
9050,1
9051,6
9052,1
9053,0
9054,6
9055,9
9056,8
9057,3
9058,9
9059,6
9060,3
9061,0
9062,1
9063,2
9064,3
9065,4
9066,5
9067,6
9068,7
9069,8
9070,9
9071,0
9072,1
9073,2
9074,3
9075,4
9076,5
9077,6
9078,7
9079,8
9080,9
9081,0
9082,1
9083,2
9084,3
9085,4
9086,5
9087,6
9088,7
9089,8
9090,9
9091,1
9092,6
9093,8
9094,9
9095,9
9096,0
9097,1
9098,2
9099,4
9100,4
9101,3
9102,7
9103,4
9104,4
9105,4
9106,0
9107,3
9108,8
9109,7
9110,5
9111,8
9112,2
9113,1
9114,7
9115,5
9116,3
9117,8
9118,5
9119,2
9120,5
9121,1
9122,1
9123,6
9124,2
9125,1
9126,3
9127,8
9128,6
9129,4
9130,2
9131,6
9132,2
9133,5
9134,5
9135,0
9136,2
9137,8
9138,0
9139,6
9140,8
9141,1
9142,4
9143,9
9144,1
9145,9
9146,2
9147,6
9148,7
9149,6
9150,6
9151,8
9152,7
9153,4
9154,9
9155,2
9156,1
9157,3
9158,3
9159,0
9160,5
9161,5
9162,8
9163,0
9164,3
9165,7
9166,9
9167,7
9168,0
9169,2
9170,7
9171,9
9172,1
9173,4
9174,8
9175,0
9176,3
9177,5
9178,3
9179,6
9180,0
9181,1
9182,2
9183,3
9184,4
9185,5
9186,6
9187,7
9188,8
9189,9
9190,0
9191,1
9192,2
9193,3
9194,4
9195,5
9196,6
9197,7
9198,8
9199,9
9200,0
9201,1
9202,2
9203,3
9204,4
9205,7
9206,8
9207,9
9208,6
9209,4
9210,2
9211,8
9212,9
9213,7
9214,8
9215,9
9216,2
9217,9
9218,3
9219,9
9220,3
9221,0
9222,0
9223,1
9224,0
9225,4
9226,2
9227,6
9228,3
9229,5
9230,3
9231,0
9232,3
9233,4
9234,1
9235,5
9236,3
9237,0
9238,8
9239,3
9240,0
9241,6
9242,1
9243,7
9244,8
9245,0
9246,9
9247,2
9248,6
9249,7
9250,1
9251,9
9252,6
9253,9
9254,4
9255,8
9256,9
9257,6
9258,7
9259,1
9260,2
9261,5
9262,3
9263,7
9264,8
9265,0
9266,1
9267,2
9268,4
9269,5
9270,6
9271,7
9272,8
9273,9
9274,0
9275,1
9276,3
9277,4
9278,5
9279,6
9280,7
9281,5
9282,0
9283,1
9284,3
9285,4
9286,7
9287,8
9288,9
9289,7
9290,5
9291,5
9292,1
9293,9
9294,9
9295,7
9296,1
9297,0
9298,0
9299,5
9300,9
9301,7
9302,1
9303,7
9304,2
9305,2
9306,3
9307,6
9308,8
9309,3
9310,2
9311,0
9312,0
9313,6
9314,1
9315,7
9316,5
9317,9
9318,6
9319,2
9320,9
9321,4
9322,8
9323,8
9324,7
9325,1
9326,0
9327,8
9328,7
9329,7
9330,5
9331,8
9332,5
9333,3
9334,4
9335,6
9336,1
9337,1
9338,5
9339,5
9340,0
9341,7
9342,2
9343,2
9344,6
9345,4
9346,1
9347,2
9348,4
9349,1
9350,5
9351,4
9352,2
9353,0
9354,4
9355,8
9356,6
9357,1
9358,9
9359,0
9360,2
9361,5
9362,6
9363,9
9364,3
9365,6
9366,3
9367,6
9368,0
9369,1
9370,2
9371,3
9372,4
9373,5
9374,6
9375,7
9376,8
9377,9
9378,0
9379,1
9380,2
9381,3
9382,4
9383,5
9384,6
9385,7
9386,8
9387,9
9388,0
9389,1
9390,2
9391,3
9392,5
9393,6
9394,7
9395,8
9396,1
9397,0
9398,9
9399,5
9400,7
9401,5
9402,1
9403,8
9404,6
9405,9
9406,0
9407,4
9408,1
9409,9
9410,3
9411,8
9412,4
9413,4
9414,7
9415,0
9416,1
9417,9
9418,2
9419,8
9420,7
9421,8
9422,2
9423,5
9424,9
9425,6
9426,0
9427,6
9428,5
9429,5
9430,3
9431,3
9432,3
9433,9
9434,8
9435,1
9436,1
9437,0
9438,6
9439,1
9440,0
9441,0
9442,6
9443,2
9444,1
9445,1
9446,3
9447,2
9448,7
9449,7
9450,8
9451,8
9452,7
9453,8
9454,4
9455,6
9456,0
9457,7
9458,0
9459,9
9460,0
9461,3
9462,6
9463,8
9464,7
9465,1
9466,5
9467,9
9468,9
9469,3
9470,7
9471,2
9472,4
9473,9
9474,4
9475,3
9476,6
9477,2
9478,2
9479,5
9480,3
9481,2
9482,5
9483,5
9484,9
9485,4
9486,1
9487,7
9488,2
9489,0
9490,1
9491,2
9492,3
9493,4
9494,5
9495,6
9496,7
9497,8
9498,9
9499,0
9500,1
9501,2
9502,3
9503,4
9504,5
9505,6
9506,7
9507,8
9508,9
9509,0
9510,1
9511,2
9512,3
9513,4
9514,5
9515,6
9516,7
9517,8
9518,9
9519,1
9520,0
9521,1
9522,2
9523,7
9524,5
9525,3
9526,4
9527,4
9528,0
9529,0
9530,6
9531,8
9532,6
9533,6
9534,5
9535,7
9536,2
9537,3
9538,4
9539,4
9540,9
9541,1
9542,4
9543,0
9544,7
9545,9
9546,5
9547,7
9548,2
9549,3
9550,1
9551,4
9552,4
9553,0
9554,9
9555,9
9556,6
9557,1
9558,8
9559,3
9560,3
9561,7
9562,3
9563,9
9564,8
9565,8
9566,4
9567,7
9568,7
9569,6
9570,2
9571,1
9572,9
9573,8
9574,7
9575,8
9576,8
9577,7
9578,2
9579,2
9580,3
9581,9
9582,3
9583,3
9584,5
9585,5
9586,0
9587,7
9588,9
9589,5
9590,6
9591,5
9592,1
9593,4
9594,1
9595,1
9596,2
9597,8
9598,2
9599,6
9600,1
9601,5
9602,0
9603,1
9604,2
9605,3
9606,4
9607,5
9608,6
9609,7
9610,8
9611,9
9612,0
9613,1
9614,2
9615,3
9616,4
9617,5
9618,6
9619,7
9620,8
9621,9
9622,0
9623,1
9624,2
9625,3
9626,4
9627,5
9628,6
9629,7
9630,8
9631,8
9632,0
9633,6
9634,0
9635,3
9636,2
9637,3
9638,7
9639,9
9640,4
9641,7
9642,1
9643,7
9644,1
9645,7
9646,1
9647,4
9648,0
9649,0
9650,1
9651,7
9652,5
9653,7
9654,1
9655,3
9656,5
9657,3
9658,1
9659,6
9660,9
9661,7
9662,1
9663,3
9664,0
9665,7
9666,6
9667,0
9668,8
9669,9
9670,4
9671,3
9672,5
9673,4
9674,8
9675,1
9676,5
9677,9
9678,0
9679,6
9680,6
9681,3
9682,8
9683,1
9684,4
9685,9
9686,5
9687,2
9688,0
9689,0
9690,1
9691,7
9692,8
9693,9
9694,6
9695,8
9696,8
9697,2
9698,3
9699,6
9700,1
9701,1
9702,9
9703,5
9704,2
9705,0
9706,1
9707,2
9708,3
9709,4
9710,5
9711,6
9712,7
9713,8
9714,9
9715,0
9716,1
9717,0
9718,3
9719,4
9720,0
9721,6
9722,7
9723,8
9724,9
9725,0
9726,1
9727,0
9728,3
9729,4
9730,6
9731,6
9732,7
9733,8
9734,9
9735,7
9736,4
9737,6
9738,1
9739,4
9740,0
9741,9
9742,7
9743,3
9744,7
9745,8
9746,4
9747,7
9748,5
9749,8
9750,6
9751,3
9752,2
9753,2
9754,0
9755,5
9756,8
9757,6
9758,0
9759,3
9760,8
9761,1
9762,0
9763,3
9764,0
9765,4
9766,7
9767,4
9768,9
9769,0
9770,9
9771,0
9772,7
9773,1
9774,7
9775,1
9776,6
9777,6
9778,6
9779,6
9780,0
9781,8
9782,7
9783,6
9784,4
9785,9
9786,9
9787,5
9788,3
9789,7
9790,4
9791,3
9792,0
9793,9
9794,6
9795,6
9796,1
9797,1
9798,3
9799,2
9800,1
9801,0
9802,0
9803,1
9804,2
9805,3
9806,4
9807,7
9808,8
9809,4
9810,0
9811,1
9812,7
9813,3
9814,4
9815,5
9816,6
9817,7
9818,8
9819,0
9820,1
9821,2
9822,3
9823,4
9824,7
9825,8
9826,9
9827,6
9828,8
9829,3
9830,9
9831,5
9832,5
9833,2
9834,6
9835,8
9836,4
9837,1
9838,7
9839,1
9840,7
9841,3
9842,5
9843,6
9844,9
9845,1
9846,1
9847,1
9848,7
9849,1
9850,2
9851,8
9852,7
9853,7
9854,5
9855,8
9856,2
9857,5
9858,8
9859,6
9860,7
9861,3
9862,4
9863,6
9864,8
9865,7
9866,0
9867,4
9868,8
9869,7
9870,7
9871,5
9872,4
9873,3
9874,4
9875,2
9876,8
9877,1
9878,5
9879,1
9880,0
9881,2
9882,3
9883,3
9884,5
9885,7
9886,0
9887,6
9888,8
9889,8
9890,3
9891,9
9892,4
9893,8
9894,2
9895,7
9896,7
9897,1
9898,0
9899,1
9900,7
9901,8
9902,9
9903,0
9904,1
9905,2
9906,9
9907,4
9908,5
9909,6
9910,7
9911,8
9912,0
9913,1
9914,2
9915,3
9916,4
9917,7
9918,8
9919,9
9920,7
9921,8
9922,6
9923,4
9924,1
9925,9
9926,8
9927,8
9928,4
9929,4
9930,7
9931,0
9932,1
9933,9
9934,2
9935,8
9936,7
9937,8
9938,2
9939,6
9940,0
9941,6
9942,5
9943,3
9944,8
9945,8
9946,9
9947,1
9948,4
9949,0
9950,6
9951,1
9952,0
9953,0
9954,0
9955,2
9956,1
9957,1
9958,7
9959,7
9960,8
9961,4
9962,6
9963,0
9964,7
9965,0
9966,3
9967,6
9968,8
9969,7
9970,1
9971,5
9972,2
9973,4
9974,9
9975,4
9976,2
9977,6
9978,4
9979,1
9980,7
9981,2
9982,6
9983,6
9984,0
9985,1
9986,2
9987,3
9988,4
9989,5
9990,6
9991,7
9992,8
9993,9
9994,0
9995,1
9996,2
9997,3
9998,4
9999,5
10000,6
